^D:\TYALU\DOCUMENTS\VISUAL STUDIO 2015\PROJECTS\ASTEROIDGAME\ASTEROIDGAME\GENERATEDFILES\QRC_MAINWINDOW.CPP
/c /I.\GENERATEDFILES /I. /I"D:\PROGRAM FILES\QTVS\5.8\MSVC2015_64\INCLUDE" /I.\GENERATEDFILES\DEBUG /I"D:\PROGRAM FILES\QTVS\5.8\MSVC2015_64\INCLUDE\QTCORE" /I"D:\PROGRAM FILES\QTVS\5.8\MSVC2015_64\INCLUDE\QTGUI" /I"D:\PROGRAM FILES\QTVS\5.8\MSVC2015_64\INCLUDE\QTWIDGETS" /Zi /nologo /W1 /WX- /Od /D UNICODE /D WIN32 /D QT_DLL /D QT_CORE_LIB /D QT_GUI_LIB /D QT_WIDGETS_LIB /Gm- /EHsc /MDd /GS /fp:precise /Zc:wchar_t /Zc:forScope /Zc:inline /Fo"X64\DEBUG\\" /Fd"X64\DEBUG\VC140.PDB" /Gd /TP D:\TYALU\DOCUMENTS\VISUAL STUDIO 2015\PROJECTS\ASTEROIDGAME\ASTEROIDGAME\GENERATEDFILES\QRC_MAINWINDOW.CPP
^D:\TYALU\DOCUMENTS\VISUAL STUDIO 2015\PROJECTS\ASTEROIDGAME\ASTEROIDGAME\GENERATEDFILES\DEBUG\MOC_BUTTON.CPP
/c /I.\GENERATEDFILES /I. /I"D:\PROGRAM FILES\QTVS\5.8\MSVC2015_64\INCLUDE" /I.\GENERATEDFILES\DEBUG /I"D:\PROGRAM FILES\QTVS\5.8\MSVC2015_64\INCLUDE\QTCORE" /I"D:\PROGRAM FILES\QTVS\5.8\MSVC2015_64\INCLUDE\QTGUI" /I"D:\PROGRAM FILES\QTVS\5.8\MSVC2015_64\INCLUDE\QTWIDGETS" /Zi /nologo /W1 /WX- /Od /D UNICODE /D WIN32 /D QT_DLL /D QT_CORE_LIB /D QT_GUI_LIB /D QT_WIDGETS_LIB /Gm- /EHsc /MDd /GS /fp:precise /Zc:wchar_t /Zc:forScope /Zc:inline /Fo"X64\DEBUG\\" /Fd"X64\DEBUG\VC140.PDB" /Gd /TP D:\TYALU\DOCUMENTS\VISUAL STUDIO 2015\PROJECTS\ASTEROIDGAME\ASTEROIDGAME\GENERATEDFILES\DEBUG\MOC_BUTTON.CPP
^D:\TYALU\DOCUMENTS\VISUAL STUDIO 2015\PROJECTS\ASTEROIDGAME\ASTEROIDGAME\GAMESCENE.CPP
/c /I.\GENERATEDFILES /I. /I"D:\PROGRAM FILES\QTVS\5.8\MSVC2015_64\INCLUDE" /I.\GENERATEDFILES\DEBUG /I"D:\PROGRAM FILES\QTVS\5.8\MSVC2015_64\INCLUDE\QTCORE" /I"D:\PROGRAM FILES\QTVS\5.8\MSVC2015_64\INCLUDE\QTGUI" /I"D:\PROGRAM FILES\QTVS\5.8\MSVC2015_64\INCLUDE\QTWIDGETS" /Zi /nologo /W1 /WX- /Od /D UNICODE /D WIN32 /D QT_DLL /D QT_CORE_LIB /D QT_GUI_LIB /D QT_WIDGETS_LIB /Gm- /EHsc /MDd /GS /fp:precise /Zc:wchar_t /Zc:forScope /Zc:inline /Fo"X64\DEBUG\\" /Fd"X64\DEBUG\VC140.PDB" /Gd /TP D:\TYALU\DOCUMENTS\VISUAL STUDIO 2015\PROJECTS\ASTEROIDGAME\ASTEROIDGAME\GAMESCENE.CPP
^D:\TYALU\DOCUMENTS\VISUAL STUDIO 2015\PROJECTS\ASTEROIDGAME\ASTEROIDGAME\BUTTON.CPP
/c /I.\GENERATEDFILES /I. /I"D:\PROGRAM FILES\QTVS\5.8\MSVC2015_64\INCLUDE" /I.\GENERATEDFILES\DEBUG /I"D:\PROGRAM FILES\QTVS\5.8\MSVC2015_64\INCLUDE\QTCORE" /I"D:\PROGRAM FILES\QTVS\5.8\MSVC2015_64\INCLUDE\QTGUI" /I"D:\PROGRAM FILES\QTVS\5.8\MSVC2015_64\INCLUDE\QTWIDGETS" /Zi /nologo /W1 /WX- /Od /D UNICODE /D WIN32 /D QT_DLL /D QT_CORE_LIB /D QT_GUI_LIB /D QT_WIDGETS_LIB /Gm- /EHsc /MDd /GS /fp:precise /Zc:wchar_t /Zc:forScope /Zc:inline /Fo"X64\DEBUG\\" /Fd"X64\DEBUG\VC140.PDB" /Gd /TP D:\TYALU\DOCUMENTS\VISUAL STUDIO 2015\PROJECTS\ASTEROIDGAME\ASTEROIDGAME\BUTTON.CPP
^D:\TYALU\DOCUMENTS\VISUAL STUDIO 2015\PROJECTS\ASTEROIDGAME\ASTEROIDGAME\GENERATEDFILES\DEBUG\MOC_GAMEBUTTON.CPP
/c /I.\GENERATEDFILES /I. /I"D:\PROGRAM FILES\QTVS\5.8\MSVC2015_64\INCLUDE" /I.\GENERATEDFILES\DEBUG /I"D:\PROGRAM FILES\QTVS\5.8\MSVC2015_64\INCLUDE\QTCORE" /I"D:\PROGRAM FILES\QTVS\5.8\MSVC2015_64\INCLUDE\QTGUI" /I"D:\PROGRAM FILES\QTVS\5.8\MSVC2015_64\INCLUDE\QTWIDGETS" /Zi /nologo /W1 /WX- /Od /D UNICODE /D WIN32 /D QT_DLL /D QT_CORE_LIB /D QT_GUI_LIB /D QT_WIDGETS_LIB /Gm- /EHsc /MDd /GS /fp:precise /Zc:wchar_t /Zc:forScope /Zc:inline /Fo"X64\DEBUG\\" /Fd"X64\DEBUG\VC140.PDB" /Gd /TP D:\TYALU\DOCUMENTS\VISUAL STUDIO 2015\PROJECTS\ASTEROIDGAME\ASTEROIDGAME\GENERATEDFILES\DEBUG\MOC_GAMEBUTTON.CPP
^D:\TYALU\DOCUMENTS\VISUAL STUDIO 2015\PROJECTS\ASTEROIDGAME\ASTEROIDGAME\GENERATEDFILES\DEBUG\MOC_BULLET.CPP
/c /I.\GENERATEDFILES /I. /I"D:\PROGRAM FILES\QTVS\5.8\MSVC2015_64\INCLUDE" /I.\GENERATEDFILES\DEBUG /I"D:\PROGRAM FILES\QTVS\5.8\MSVC2015_64\INCLUDE\QTCORE" /I"D:\PROGRAM FILES\QTVS\5.8\MSVC2015_64\INCLUDE\QTGUI" /I"D:\PROGRAM FILES\QTVS\5.8\MSVC2015_64\INCLUDE\QTWIDGETS" /Zi /nologo /W1 /WX- /Od /D UNICODE /D WIN32 /D QT_DLL /D QT_CORE_LIB /D QT_GUI_LIB /D QT_WIDGETS_LIB /Gm- /EHsc /MDd /GS /fp:precise /Zc:wchar_t /Zc:forScope /Zc:inline /Fo"X64\DEBUG\\" /Fd"X64\DEBUG\VC140.PDB" /Gd /TP D:\TYALU\DOCUMENTS\VISUAL STUDIO 2015\PROJECTS\ASTEROIDGAME\ASTEROIDGAME\GENERATEDFILES\DEBUG\MOC_BULLET.CPP
^D:\TYALU\DOCUMENTS\VISUAL STUDIO 2015\PROJECTS\ASTEROIDGAME\ASTEROIDGAME\GENERATEDFILES\DEBUG\MOC_MAINWINDOW.CPP
/c /I.\GENERATEDFILES /I. /I"D:\PROGRAM FILES\QTVS\5.8\MSVC2015_64\INCLUDE" /I.\GENERATEDFILES\DEBUG /I"D:\PROGRAM FILES\QTVS\5.8\MSVC2015_64\INCLUDE\QTCORE" /I"D:\PROGRAM FILES\QTVS\5.8\MSVC2015_64\INCLUDE\QTGUI" /I"D:\PROGRAM FILES\QTVS\5.8\MSVC2015_64\INCLUDE\QTWIDGETS" /Zi /nologo /W1 /WX- /Od /D UNICODE /D WIN32 /D QT_DLL /D QT_CORE_LIB /D QT_GUI_LIB /D QT_WIDGETS_LIB /Gm- /EHsc /MDd /GS /fp:precise /Zc:wchar_t /Zc:forScope /Zc:inline /Fo"X64\DEBUG\\" /Fd"X64\DEBUG\VC140.PDB" /Gd /TP D:\TYALU\DOCUMENTS\VISUAL STUDIO 2015\PROJECTS\ASTEROIDGAME\ASTEROIDGAME\GENERATEDFILES\DEBUG\MOC_MAINWINDOW.CPP
^D:\TYALU\DOCUMENTS\VISUAL STUDIO 2015\PROJECTS\ASTEROIDGAME\ASTEROIDGAME\GRAPHICOBJECT.CPP
/c /I.\GENERATEDFILES /I. /I"D:\PROGRAM FILES\QTVS\5.8\MSVC2015_64\INCLUDE" /I.\GENERATEDFILES\DEBUG /I"D:\PROGRAM FILES\QTVS\5.8\MSVC2015_64\INCLUDE\QTCORE" /I"D:\PROGRAM FILES\QTVS\5.8\MSVC2015_64\INCLUDE\QTGUI" /I"D:\PROGRAM FILES\QTVS\5.8\MSVC2015_64\INCLUDE\QTWIDGETS" /Zi /nologo /W1 /WX- /Od /D UNICODE /D WIN32 /D QT_DLL /D QT_CORE_LIB /D QT_GUI_LIB /D QT_WIDGETS_LIB /Gm- /EHsc /MDd /GS /fp:precise /Zc:wchar_t /Zc:forScope /Zc:inline /Fo"X64\DEBUG\\" /Fd"X64\DEBUG\VC140.PDB" /Gd /TP D:\TYALU\DOCUMENTS\VISUAL STUDIO 2015\PROJECTS\ASTEROIDGAME\ASTEROIDGAME\GRAPHICOBJECT.CPP
^D:\TYALU\DOCUMENTS\VISUAL STUDIO 2015\PROJECTS\ASTEROIDGAME\ASTEROIDGAME\LOG.CPP
/c /I.\GENERATEDFILES /I. /I"D:\PROGRAM FILES\QTVS\5.8\MSVC2015_64\INCLUDE" /I.\GENERATEDFILES\DEBUG /I"D:\PROGRAM FILES\QTVS\5.8\MSVC2015_64\INCLUDE\QTCORE" /I"D:\PROGRAM FILES\QTVS\5.8\MSVC2015_64\INCLUDE\QTGUI" /I"D:\PROGRAM FILES\QTVS\5.8\MSVC2015_64\INCLUDE\QTWIDGETS" /Zi /nologo /W1 /WX- /Od /D UNICODE /D WIN32 /D QT_DLL /D QT_CORE_LIB /D QT_GUI_LIB /D QT_WIDGETS_LIB /Gm- /EHsc /MDd /GS /fp:precise /Zc:wchar_t /Zc:forScope /Zc:inline /Fo"X64\DEBUG\\" /Fd"X64\DEBUG\VC140.PDB" /Gd /TP D:\TYALU\DOCUMENTS\VISUAL STUDIO 2015\PROJECTS\ASTEROIDGAME\ASTEROIDGAME\LOG.CPP
^D:\TYALU\DOCUMENTS\VISUAL STUDIO 2015\PROJECTS\ASTEROIDGAME\ASTEROIDGAME\ASTEROID.CPP
/c /I.\GENERATEDFILES /I. /I"D:\PROGRAM FILES\QTVS\5.8\MSVC2015_64\INCLUDE" /I.\GENERATEDFILES\DEBUG /I"D:\PROGRAM FILES\QTVS\5.8\MSVC2015_64\INCLUDE\QTCORE" /I"D:\PROGRAM FILES\QTVS\5.8\MSVC2015_64\INCLUDE\QTGUI" /I"D:\PROGRAM FILES\QTVS\5.8\MSVC2015_64\INCLUDE\QTWIDGETS" /Zi /nologo /W1 /WX- /Od /D UNICODE /D WIN32 /D QT_DLL /D QT_CORE_LIB /D QT_GUI_LIB /D QT_WIDGETS_LIB /Gm- /EHsc /MDd /GS /fp:precise /Zc:wchar_t /Zc:forScope /Zc:inline /Fo"X64\DEBUG\\" /Fd"X64\DEBUG\VC140.PDB" /Gd /TP D:\TYALU\DOCUMENTS\VISUAL STUDIO 2015\PROJECTS\ASTEROIDGAME\ASTEROIDGAME\ASTEROID.CPP
^D:\TYALU\DOCUMENTS\VISUAL STUDIO 2015\PROJECTS\ASTEROIDGAME\ASTEROIDGAME\BULLET.CPP
/c /I.\GENERATEDFILES /I. /I"D:\PROGRAM FILES\QTVS\5.8\MSVC2015_64\INCLUDE" /I.\GENERATEDFILES\DEBUG /I"D:\PROGRAM FILES\QTVS\5.8\MSVC2015_64\INCLUDE\QTCORE" /I"D:\PROGRAM FILES\QTVS\5.8\MSVC2015_64\INCLUDE\QTGUI" /I"D:\PROGRAM FILES\QTVS\5.8\MSVC2015_64\INCLUDE\QTWIDGETS" /Zi /nologo /W1 /WX- /Od /D UNICODE /D WIN32 /D QT_DLL /D QT_CORE_LIB /D QT_GUI_LIB /D QT_WIDGETS_LIB /Gm- /EHsc /MDd /GS /fp:precise /Zc:wchar_t /Zc:forScope /Zc:inline /Fo"X64\DEBUG\\" /Fd"X64\DEBUG\VC140.PDB" /Gd /TP D:\TYALU\DOCUMENTS\VISUAL STUDIO 2015\PROJECTS\ASTEROIDGAME\ASTEROIDGAME\BULLET.CPP
^D:\TYALU\DOCUMENTS\VISUAL STUDIO 2015\PROJECTS\ASTEROIDGAME\ASTEROIDGAME\GAMEBUTTON.CPP
/c /I.\GENERATEDFILES /I. /I"D:\PROGRAM FILES\QTVS\5.8\MSVC2015_64\INCLUDE" /I.\GENERATEDFILES\DEBUG /I"D:\PROGRAM FILES\QTVS\5.8\MSVC2015_64\INCLUDE\QTCORE" /I"D:\PROGRAM FILES\QTVS\5.8\MSVC2015_64\INCLUDE\QTGUI" /I"D:\PROGRAM FILES\QTVS\5.8\MSVC2015_64\INCLUDE\QTWIDGETS" /Zi /nologo /W1 /WX- /Od /D UNICODE /D WIN32 /D QT_DLL /D QT_CORE_LIB /D QT_GUI_LIB /D QT_WIDGETS_LIB /Gm- /EHsc /MDd /GS /fp:precise /Zc:wchar_t /Zc:forScope /Zc:inline /Fo"X64\DEBUG\\" /Fd"X64\DEBUG\VC140.PDB" /Gd /TP D:\TYALU\DOCUMENTS\VISUAL STUDIO 2015\PROJECTS\ASTEROIDGAME\ASTEROIDGAME\GAMEBUTTON.CPP
^D:\TYALU\DOCUMENTS\VISUAL STUDIO 2015\PROJECTS\ASTEROIDGAME\ASTEROIDGAME\PLAYER.CPP
/c /I.\GENERATEDFILES /I. /I"D:\PROGRAM FILES\QTVS\5.8\MSVC2015_64\INCLUDE" /I.\GENERATEDFILES\DEBUG /I"D:\PROGRAM FILES\QTVS\5.8\MSVC2015_64\INCLUDE\QTCORE" /I"D:\PROGRAM FILES\QTVS\5.8\MSVC2015_64\INCLUDE\QTGUI" /I"D:\PROGRAM FILES\QTVS\5.8\MSVC2015_64\INCLUDE\QTWIDGETS" /Zi /nologo /W1 /WX- /Od /D UNICODE /D WIN32 /D QT_DLL /D QT_CORE_LIB /D QT_GUI_LIB /D QT_WIDGETS_LIB /Gm- /EHsc /MDd /GS /fp:precise /Zc:wchar_t /Zc:forScope /Zc:inline /Fo"X64\DEBUG\\" /Fd"X64\DEBUG\VC140.PDB" /Gd /TP D:\TYALU\DOCUMENTS\VISUAL STUDIO 2015\PROJECTS\ASTEROIDGAME\ASTEROIDGAME\PLAYER.CPP
^D:\TYALU\DOCUMENTS\VISUAL STUDIO 2015\PROJECTS\ASTEROIDGAME\ASTEROIDGAME\MAIN.CPP
/c /I.\GENERATEDFILES /I. /I"D:\PROGRAM FILES\QTVS\5.8\MSVC2015_64\INCLUDE" /I.\GENERATEDFILES\DEBUG /I"D:\PROGRAM FILES\QTVS\5.8\MSVC2015_64\INCLUDE\QTCORE" /I"D:\PROGRAM FILES\QTVS\5.8\MSVC2015_64\INCLUDE\QTGUI" /I"D:\PROGRAM FILES\QTVS\5.8\MSVC2015_64\INCLUDE\QTWIDGETS" /Zi /nologo /W1 /WX- /Od /D UNICODE /D WIN32 /D QT_DLL /D QT_CORE_LIB /D QT_GUI_LIB /D QT_WIDGETS_LIB /Gm- /EHsc /MDd /GS /fp:precise /Zc:wchar_t /Zc:forScope /Zc:inline /Fo"X64\DEBUG\\" /Fd"X64\DEBUG\VC140.PDB" /Gd /TP D:\TYALU\DOCUMENTS\VISUAL STUDIO 2015\PROJECTS\ASTEROIDGAME\ASTEROIDGAME\MAIN.CPP
^D:\TYALU\DOCUMENTS\VISUAL STUDIO 2015\PROJECTS\ASTEROIDGAME\ASTEROIDGAME\MAINWINDOW.CPP
/c /I.\GENERATEDFILES /I. /I"D:\PROGRAM FILES\QTVS\5.8\MSVC2015_64\INCLUDE" /I.\GENERATEDFILES\DEBUG /I"D:\PROGRAM FILES\QTVS\5.8\MSVC2015_64\INCLUDE\QTCORE" /I"D:\PROGRAM FILES\QTVS\5.8\MSVC2015_64\INCLUDE\QTGUI" /I"D:\PROGRAM FILES\QTVS\5.8\MSVC2015_64\INCLUDE\QTWIDGETS" /Zi /nologo /W1 /WX- /Od /D UNICODE /D WIN32 /D QT_DLL /D QT_CORE_LIB /D QT_GUI_LIB /D QT_WIDGETS_LIB /Gm- /EHsc /MDd /GS /fp:precise /Zc:wchar_t /Zc:forScope /Zc:inline /Fo"X64\DEBUG\\" /Fd"X64\DEBUG\VC140.PDB" /Gd /TP D:\TYALU\DOCUMENTS\VISUAL STUDIO 2015\PROJECTS\ASTEROIDGAME\ASTEROIDGAME\MAINWINDOW.CPP
^D:\TYALU\DOCUMENTS\VISUAL STUDIO 2015\PROJECTS\ASTEROIDGAME\ASTEROIDGAME\GAME.CPP
/c /I.\GENERATEDFILES /I. /I"D:\PROGRAM FILES\QTVS\5.8\MSVC2015_64\INCLUDE" /I.\GENERATEDFILES\DEBUG /I"D:\PROGRAM FILES\QTVS\5.8\MSVC2015_64\INCLUDE\QTCORE" /I"D:\PROGRAM FILES\QTVS\5.8\MSVC2015_64\INCLUDE\QTGUI" /I"D:\PROGRAM FILES\QTVS\5.8\MSVC2015_64\INCLUDE\QTWIDGETS" /Zi /nologo /W1 /WX- /Od /D UNICODE /D WIN32 /D QT_DLL /D QT_CORE_LIB /D QT_GUI_LIB /D QT_WIDGETS_LIB /Gm- /EHsc /MDd /GS /fp:precise /Zc:wchar_t /Zc:forScope /Zc:inline /Fo"X64\DEBUG\\" /Fd"X64\DEBUG\VC140.PDB" /Gd /TP D:\TYALU\DOCUMENTS\VISUAL STUDIO 2015\PROJECTS\ASTEROIDGAME\ASTEROIDGAME\GAME.CPP
^D:\TYALU\DOCUMENTS\VISUAL STUDIO 2015\PROJECTS\ASTEROIDGAME\ASTEROIDGAME\GAMESCENESTATE.CPP
/c /I.\GENERATEDFILES /I. /I"D:\PROGRAM FILES\QTVS\5.8\MSVC2015_64\INCLUDE" /I.\GENERATEDFILES\DEBUG /I"D:\PROGRAM FILES\QTVS\5.8\MSVC2015_64\INCLUDE\QTCORE" /I"D:\PROGRAM FILES\QTVS\5.8\MSVC2015_64\INCLUDE\QTGUI" /I"D:\PROGRAM FILES\QTVS\5.8\MSVC2015_64\INCLUDE\QTWIDGETS" /Zi /nologo /W1 /WX- /Od /D UNICODE /D WIN32 /D QT_DLL /D QT_CORE_LIB /D QT_GUI_LIB /D QT_WIDGETS_LIB /Gm- /EHsc /MDd /GS /fp:precise /Zc:wchar_t /Zc:forScope /Zc:inline /Fo"X64\DEBUG\\" /Fd"X64\DEBUG\VC140.PDB" /Gd /TP D:\TYALU\DOCUMENTS\VISUAL STUDIO 2015\PROJECTS\ASTEROIDGAME\ASTEROIDGAME\GAMESCENESTATE.CPP
^D:\TYALU\DOCUMENTS\VISUAL STUDIO 2015\PROJECTS\ASTEROIDGAME\ASTEROIDGAME\GAMESTATE.CPP
/c /I.\GENERATEDFILES /I. /I"D:\PROGRAM FILES\QTVS\5.8\MSVC2015_64\INCLUDE" /I.\GENERATEDFILES\DEBUG /I"D:\PROGRAM FILES\QTVS\5.8\MSVC2015_64\INCLUDE\QTCORE" /I"D:\PROGRAM FILES\QTVS\5.8\MSVC2015_64\INCLUDE\QTGUI" /I"D:\PROGRAM FILES\QTVS\5.8\MSVC2015_64\INCLUDE\QTWIDGETS" /Zi /nologo /W1 /WX- /Od /D UNICODE /D WIN32 /D QT_DLL /D QT_CORE_LIB /D QT_GUI_LIB /D QT_WIDGETS_LIB /Gm- /EHsc /MDd /GS /fp:precise /Zc:wchar_t /Zc:forScope /Zc:inline /Fo"X64\DEBUG\\" /Fd"X64\DEBUG\VC140.PDB" /Gd /TP D:\TYALU\DOCUMENTS\VISUAL STUDIO 2015\PROJECTS\ASTEROIDGAME\ASTEROIDGAME\GAMESTATE.CPP
^D:\TYALU\DOCUMENTS\VISUAL STUDIO 2015\PROJECTS\ASTEROIDGAME\ASTEROIDGAME\GAMESTRATEGY.CPP
/c /I.\GENERATEDFILES /I. /I"D:\PROGRAM FILES\QTVS\5.8\MSVC2015_64\INCLUDE" /I.\GENERATEDFILES\DEBUG /I"D:\PROGRAM FILES\QTVS\5.8\MSVC2015_64\INCLUDE\QTCORE" /I"D:\PROGRAM FILES\QTVS\5.8\MSVC2015_64\INCLUDE\QTGUI" /I"D:\PROGRAM FILES\QTVS\5.8\MSVC2015_64\INCLUDE\QTWIDGETS" /Zi /nologo /W1 /WX- /Od /D UNICODE /D WIN32 /D QT_DLL /D QT_CORE_LIB /D QT_GUI_LIB /D QT_WIDGETS_LIB /Gm- /EHsc /MDd /GS /fp:precise /Zc:wchar_t /Zc:forScope /Zc:inline /Fo"X64\DEBUG\\" /Fd"X64\DEBUG\VC140.PDB" /Gd /TP D:\TYALU\DOCUMENTS\VISUAL STUDIO 2015\PROJECTS\ASTEROIDGAME\ASTEROIDGAME\GAMESTRATEGY.CPP
^D:\TYALU\DOCUMENTS\VISUAL STUDIO 2015\PROJECTS\ASTEROIDGAME\ASTEROIDGAME\LOADINGSTATE.CPP
/c /I.\GENERATEDFILES /I. /I"D:\PROGRAM FILES\QTVS\5.8\MSVC2015_64\INCLUDE" /I.\GENERATEDFILES\DEBUG /I"D:\PROGRAM FILES\QTVS\5.8\MSVC2015_64\INCLUDE\QTCORE" /I"D:\PROGRAM FILES\QTVS\5.8\MSVC2015_64\INCLUDE\QTGUI" /I"D:\PROGRAM FILES\QTVS\5.8\MSVC2015_64\INCLUDE\QTWIDGETS" /Zi /nologo /W1 /WX- /Od /D UNICODE /D WIN32 /D QT_DLL /D QT_CORE_LIB /D QT_GUI_LIB /D QT_WIDGETS_LIB /Gm- /EHsc /MDd /GS /fp:precise /Zc:wchar_t /Zc:forScope /Zc:inline /Fo"X64\DEBUG\\" /Fd"X64\DEBUG\VC140.PDB" /Gd /TP D:\TYALU\DOCUMENTS\VISUAL STUDIO 2015\PROJECTS\ASTEROIDGAME\ASTEROIDGAME\LOADINGSTATE.CPP
^D:\TYALU\DOCUMENTS\VISUAL STUDIO 2015\PROJECTS\ASTEROIDGAME\ASTEROIDGAME\MENUSTATE.CPP
/c /I.\GENERATEDFILES /I. /I"D:\PROGRAM FILES\QTVS\5.8\MSVC2015_64\INCLUDE" /I.\GENERATEDFILES\DEBUG /I"D:\PROGRAM FILES\QTVS\5.8\MSVC2015_64\INCLUDE\QTCORE" /I"D:\PROGRAM FILES\QTVS\5.8\MSVC2015_64\INCLUDE\QTGUI" /I"D:\PROGRAM FILES\QTVS\5.8\MSVC2015_64\INCLUDE\QTWIDGETS" /Zi /nologo /W1 /WX- /Od /D UNICODE /D WIN32 /D QT_DLL /D QT_CORE_LIB /D QT_GUI_LIB /D QT_WIDGETS_LIB /Gm- /EHsc /MDd /GS /fp:precise /Zc:wchar_t /Zc:forScope /Zc:inline /Fo"X64\DEBUG\\" /Fd"X64\DEBUG\VC140.PDB" /Gd /TP D:\TYALU\DOCUMENTS\VISUAL STUDIO 2015\PROJECTS\ASTEROIDGAME\ASTEROIDGAME\MENUSTATE.CPP
^D:\TYALU\DOCUMENTS\VISUAL STUDIO 2015\PROJECTS\ASTEROIDGAME\ASTEROIDGAME\STATSORT.CPP
/c /I.\GENERATEDFILES /I. /I"D:\PROGRAM FILES\QTVS\5.8\MSVC2015_64\INCLUDE" /I.\GENERATEDFILES\DEBUG /I"D:\PROGRAM FILES\QTVS\5.8\MSVC2015_64\INCLUDE\QTCORE" /I"D:\PROGRAM FILES\QTVS\5.8\MSVC2015_64\INCLUDE\QTGUI" /I"D:\PROGRAM FILES\QTVS\5.8\MSVC2015_64\INCLUDE\QTWIDGETS" /Zi /nologo /W1 /WX- /Od /D UNICODE /D WIN32 /D QT_DLL /D QT_CORE_LIB /D QT_GUI_LIB /D QT_WIDGETS_LIB /Gm- /EHsc /MDd /GS /fp:precise /Zc:wchar_t /Zc:forScope /Zc:inline /Fo"X64\DEBUG\\" /Fd"X64\DEBUG\VC140.PDB" /Gd /TP D:\TYALU\DOCUMENTS\VISUAL STUDIO 2015\PROJECTS\ASTEROIDGAME\ASTEROIDGAME\STATSORT.CPP
^D:\TYALU\DOCUMENTS\VISUAL STUDIO 2015\PROJECTS\ASTEROIDGAME\ASTEROIDGAME\STATISTICSTATE.CPP
/c /I.\GENERATEDFILES /I. /I"D:\PROGRAM FILES\QTVS\5.8\MSVC2015_64\INCLUDE" /I.\GENERATEDFILES\DEBUG /I"D:\PROGRAM FILES\QTVS\5.8\MSVC2015_64\INCLUDE\QTCORE" /I"D:\PROGRAM FILES\QTVS\5.8\MSVC2015_64\INCLUDE\QTGUI" /I"D:\PROGRAM FILES\QTVS\5.8\MSVC2015_64\INCLUDE\QTWIDGETS" /Zi /nologo /W1 /WX- /Od /D UNICODE /D WIN32 /D QT_DLL /D QT_CORE_LIB /D QT_GUI_LIB /D QT_WIDGETS_LIB /Gm- /EHsc /MDd /GS /fp:precise /Zc:wchar_t /Zc:forScope /Zc:inline /Fo"X64\DEBUG\\" /Fd"X64\DEBUG\VC140.PDB" /Gd /TP D:\TYALU\DOCUMENTS\VISUAL STUDIO 2015\PROJECTS\ASTEROIDGAME\ASTEROIDGAME\STATISTICSTATE.CPP
