^D:\TYALU\DOCUMENTS\VISUAL STUDIO 2015\PROJECTS\ASTEROIDGAME\ASTEROIDGAME\GENERATEDFILES\DEBUG\MOC_MAINWINDOW.CPP|D:\TYALU\DOCUMENTS\VISUAL STUDIO 2015\PROJECTS\ASTEROIDGAME\ASTEROIDGAME\MAIN.CPP|D:\TYALU\DOCUMENTS\VISUAL STUDIO 2015\PROJECTS\ASTEROIDGAME\ASTEROIDGAME\MAINWINDOW.CPP
D:\TYALU\DOCUMENTS\VISUAL STUDIO 2015\PROJECTS\ASTEROIDGAME\ASTEROIDGAME\X64\DEBUG\VC140.PDB
D:\TYALU\DOCUMENTS\VISUAL STUDIO 2015\PROJECTS\ASTEROIDGAME\ASTEROIDGAME\X64\DEBUG\MAINWINDOW.OBJ
D:\TYALU\DOCUMENTS\VISUAL STUDIO 2015\PROJECTS\ASTEROIDGAME\ASTEROIDGAME\X64\DEBUG\MAIN.OBJ
D:\TYALU\DOCUMENTS\VISUAL STUDIO 2015\PROJECTS\ASTEROIDGAME\ASTEROIDGAME\X64\DEBUG\MOC_MAINWINDOW.OBJ
^D:\TYALU\DOCUMENTS\VISUAL STUDIO 2015\PROJECTS\ASTEROIDGAME\ASTEROIDGAME\GENERATEDFILES\QRC_MAINWINDOW.CPP
D:\TYALU\DOCUMENTS\VISUAL STUDIO 2015\PROJECTS\ASTEROIDGAME\ASTEROIDGAME\X64\DEBUG\VC140.PDB
D:\TYALU\DOCUMENTS\VISUAL STUDIO 2015\PROJECTS\ASTEROIDGAME\ASTEROIDGAME\X64\DEBUG\QRC_MAINWINDOW.OBJ
^D:\TYALU\DOCUMENTS\VISUAL STUDIO 2015\PROJECTS\ASTEROIDGAME\ASTEROIDGAME\GENERATEDFILES\DEBUG\MOC_BUTTON.CPP
D:\TYALU\DOCUMENTS\VISUAL STUDIO 2015\PROJECTS\ASTEROIDGAME\ASTEROIDGAME\X64\DEBUG\VC140.PDB
^D:\TYALU\DOCUMENTS\VISUAL STUDIO 2015\PROJECTS\ASTEROIDGAME\ASTEROIDGAME\GAME.CPP|D:\TYALU\DOCUMENTS\VISUAL STUDIO 2015\PROJECTS\ASTEROIDGAME\ASTEROIDGAME\GAMESTRATEGY.CPP
D:\TYALU\DOCUMENTS\VISUAL STUDIO 2015\PROJECTS\ASTEROIDGAME\ASTEROIDGAME\X64\DEBUG\VC140.PDB
D:\TYALU\DOCUMENTS\VISUAL STUDIO 2015\PROJECTS\ASTEROIDGAME\ASTEROIDGAME\X64\DEBUG\GAMESTRATEGY.OBJ
D:\TYALU\DOCUMENTS\VISUAL STUDIO 2015\PROJECTS\ASTEROIDGAME\ASTEROIDGAME\X64\DEBUG\GAME.OBJ
^D:\TYALU\DOCUMENTS\VISUAL STUDIO 2015\PROJECTS\ASTEROIDGAME\ASTEROIDGAME\GAME.CPP|D:\TYALU\DOCUMENTS\VISUAL STUDIO 2015\PROJECTS\ASTEROIDGAME\ASTEROIDGAME\GAMESCENE.CPP|D:\TYALU\DOCUMENTS\VISUAL STUDIO 2015\PROJECTS\ASTEROIDGAME\ASTEROIDGAME\GAMESTATE.CPP|D:\TYALU\DOCUMENTS\VISUAL STUDIO 2015\PROJECTS\ASTEROIDGAME\ASTEROIDGAME\GAMESTRATEGY.CPP|D:\TYALU\DOCUMENTS\VISUAL STUDIO 2015\PROJECTS\ASTEROIDGAME\ASTEROIDGAME\LOADINGSCREEN.CPP|D:\TYALU\DOCUMENTS\VISUAL STUDIO 2015\PROJECTS\ASTEROIDGAME\ASTEROIDGAME\MAIN.CPP|D:\TYALU\DOCUMENTS\VISUAL STUDIO 2015\PROJECTS\ASTEROIDGAME\ASTEROIDGAME\MAINWINDOW.CPP
D:\TYALU\DOCUMENTS\VISUAL STUDIO 2015\PROJECTS\ASTEROIDGAME\ASTEROIDGAME\X64\DEBUG\VC140.PDB
D:\TYALU\DOCUMENTS\VISUAL STUDIO 2015\PROJECTS\ASTEROIDGAME\ASTEROIDGAME\X64\DEBUG\GAMESCENE.OBJ
^D:\TYALU\DOCUMENTS\VISUAL STUDIO 2015\PROJECTS\ASTEROIDGAME\ASTEROIDGAME\GAMESCENE.CPP
D:\TYALU\DOCUMENTS\VISUAL STUDIO 2015\PROJECTS\ASTEROIDGAME\ASTEROIDGAME\X64\DEBUG\VC140.PDB
D:\TYALU\DOCUMENTS\VISUAL STUDIO 2015\PROJECTS\ASTEROIDGAME\ASTEROIDGAME\X64\DEBUG\GAMESCENE.OBJ
^D:\TYALU\DOCUMENTS\VISUAL STUDIO 2015\PROJECTS\ASTEROIDGAME\ASTEROIDGAME\BUTTON.CPP|D:\TYALU\DOCUMENTS\VISUAL STUDIO 2015\PROJECTS\ASTEROIDGAME\ASTEROIDGAME\MENUSTATE.CPP
D:\TYALU\DOCUMENTS\VISUAL STUDIO 2015\PROJECTS\ASTEROIDGAME\ASTEROIDGAME\X64\DEBUG\VC140.PDB
D:\TYALU\DOCUMENTS\VISUAL STUDIO 2015\PROJECTS\ASTEROIDGAME\ASTEROIDGAME\X64\DEBUG\MENUSTATE.OBJ
D:\TYALU\DOCUMENTS\VISUAL STUDIO 2015\PROJECTS\ASTEROIDGAME\ASTEROIDGAME\X64\DEBUG\BUTTON.OBJ
^D:\TYALU\DOCUMENTS\VISUAL STUDIO 2015\PROJECTS\ASTEROIDGAME\ASTEROIDGAME\BUTTON.CPP|D:\TYALU\DOCUMENTS\VISUAL STUDIO 2015\PROJECTS\ASTEROIDGAME\ASTEROIDGAME\GAMEBUTTON.CPP|D:\TYALU\DOCUMENTS\VISUAL STUDIO 2015\PROJECTS\ASTEROIDGAME\ASTEROIDGAME\GENERATEDFILES\DEBUG\MOC_GAMEBUTTON.CPP
D:\TYALU\DOCUMENTS\VISUAL STUDIO 2015\PROJECTS\ASTEROIDGAME\ASTEROIDGAME\X64\DEBUG\VC140.PDB
D:\TYALU\DOCUMENTS\VISUAL STUDIO 2015\PROJECTS\ASTEROIDGAME\ASTEROIDGAME\X64\DEBUG\MOC_GAMEBUTTON.OBJ
D:\TYALU\DOCUMENTS\VISUAL STUDIO 2015\PROJECTS\ASTEROIDGAME\ASTEROIDGAME\X64\DEBUG\BUTTON.OBJ
^D:\TYALU\DOCUMENTS\VISUAL STUDIO 2015\PROJECTS\ASTEROIDGAME\ASTEROIDGAME\BUTTON.CPP
D:\TYALU\DOCUMENTS\VISUAL STUDIO 2015\PROJECTS\ASTEROIDGAME\ASTEROIDGAME\X64\DEBUG\BUTTON.OBJ
^D:\TYALU\DOCUMENTS\VISUAL STUDIO 2015\PROJECTS\ASTEROIDGAME\ASTEROIDGAME\GAMEBUTTON.CPP|D:\TYALU\DOCUMENTS\VISUAL STUDIO 2015\PROJECTS\ASTEROIDGAME\ASTEROIDGAME\MENUSTATE.CPP
D:\TYALU\DOCUMENTS\VISUAL STUDIO 2015\PROJECTS\ASTEROIDGAME\ASTEROIDGAME\X64\DEBUG\VC140.PDB
D:\TYALU\DOCUMENTS\VISUAL STUDIO 2015\PROJECTS\ASTEROIDGAME\ASTEROIDGAME\X64\DEBUG\MENUSTATE.OBJ
D:\TYALU\DOCUMENTS\VISUAL STUDIO 2015\PROJECTS\ASTEROIDGAME\ASTEROIDGAME\X64\DEBUG\GAMEBUTTON.OBJ
^D:\TYALU\DOCUMENTS\VISUAL STUDIO 2015\PROJECTS\ASTEROIDGAME\ASTEROIDGAME\GENERATEDFILES\DEBUG\MOC_GAMEBUTTON.CPP
D:\TYALU\DOCUMENTS\VISUAL STUDIO 2015\PROJECTS\ASTEROIDGAME\ASTEROIDGAME\X64\DEBUG\VC140.PDB
^D:\TYALU\DOCUMENTS\VISUAL STUDIO 2015\PROJECTS\ASTEROIDGAME\ASTEROIDGAME\GAMESCENESTATE.CPP|D:\TYALU\DOCUMENTS\VISUAL STUDIO 2015\PROJECTS\ASTEROIDGAME\ASTEROIDGAME\MENUSTATE.CPP|D:\TYALU\DOCUMENTS\VISUAL STUDIO 2015\PROJECTS\ASTEROIDGAME\ASTEROIDGAME\STATISTICSTATE.CPP
D:\TYALU\DOCUMENTS\VISUAL STUDIO 2015\PROJECTS\ASTEROIDGAME\ASTEROIDGAME\X64\DEBUG\VC140.PDB
D:\TYALU\DOCUMENTS\VISUAL STUDIO 2015\PROJECTS\ASTEROIDGAME\ASTEROIDGAME\X64\DEBUG\MENUSTATE.OBJ
^D:\TYALU\DOCUMENTS\VISUAL STUDIO 2015\PROJECTS\ASTEROIDGAME\ASTEROIDGAME\GAMESCENESTATE.CPP|D:\TYALU\DOCUMENTS\VISUAL STUDIO 2015\PROJECTS\ASTEROIDGAME\ASTEROIDGAME\STATISTICSTATE.CPP
D:\TYALU\DOCUMENTS\VISUAL STUDIO 2015\PROJECTS\ASTEROIDGAME\ASTEROIDGAME\X64\DEBUG\VC140.PDB
D:\TYALU\DOCUMENTS\VISUAL STUDIO 2015\PROJECTS\ASTEROIDGAME\ASTEROIDGAME\X64\DEBUG\STATISTICSTATE.OBJ
D:\TYALU\DOCUMENTS\VISUAL STUDIO 2015\PROJECTS\ASTEROIDGAME\ASTEROIDGAME\X64\DEBUG\GAMESCENESTATE.OBJ
^D:\TYALU\DOCUMENTS\VISUAL STUDIO 2015\PROJECTS\ASTEROIDGAME\ASTEROIDGAME\BULLET.CPP|D:\TYALU\DOCUMENTS\VISUAL STUDIO 2015\PROJECTS\ASTEROIDGAME\ASTEROIDGAME\GAME.CPP|D:\TYALU\DOCUMENTS\VISUAL STUDIO 2015\PROJECTS\ASTEROIDGAME\ASTEROIDGAME\GAMESCENESTATE.CPP|D:\TYALU\DOCUMENTS\VISUAL STUDIO 2015\PROJECTS\ASTEROIDGAME\ASTEROIDGAME\GAMESTATE.CPP|D:\TYALU\DOCUMENTS\VISUAL STUDIO 2015\PROJECTS\ASTEROIDGAME\ASTEROIDGAME\GAMESTRATEGY.CPP|D:\TYALU\DOCUMENTS\VISUAL STUDIO 2015\PROJECTS\ASTEROIDGAME\ASTEROIDGAME\LOADINGSTATE.CPP|D:\TYALU\DOCUMENTS\VISUAL STUDIO 2015\PROJECTS\ASTEROIDGAME\ASTEROIDGAME\MENUSTATE.CPP|D:\TYALU\DOCUMENTS\VISUAL STUDIO 2015\PROJECTS\ASTEROIDGAME\ASTEROIDGAME\STATISTICSTATE.CPP
D:\TYALU\DOCUMENTS\VISUAL STUDIO 2015\PROJECTS\ASTEROIDGAME\ASTEROIDGAME\X64\DEBUG\VC140.PDB
D:\TYALU\DOCUMENTS\VISUAL STUDIO 2015\PROJECTS\ASTEROIDGAME\ASTEROIDGAME\X64\DEBUG\STATISTICSTATE.OBJ
D:\TYALU\DOCUMENTS\VISUAL STUDIO 2015\PROJECTS\ASTEROIDGAME\ASTEROIDGAME\X64\DEBUG\MENUSTATE.OBJ
D:\TYALU\DOCUMENTS\VISUAL STUDIO 2015\PROJECTS\ASTEROIDGAME\ASTEROIDGAME\X64\DEBUG\LOADINGSTATE.OBJ
D:\TYALU\DOCUMENTS\VISUAL STUDIO 2015\PROJECTS\ASTEROIDGAME\ASTEROIDGAME\X64\DEBUG\GAMESTRATEGY.OBJ
D:\TYALU\DOCUMENTS\VISUAL STUDIO 2015\PROJECTS\ASTEROIDGAME\ASTEROIDGAME\X64\DEBUG\GAMESTATE.OBJ
D:\TYALU\DOCUMENTS\VISUAL STUDIO 2015\PROJECTS\ASTEROIDGAME\ASTEROIDGAME\X64\DEBUG\GAMESCENESTATE.OBJ
D:\TYALU\DOCUMENTS\VISUAL STUDIO 2015\PROJECTS\ASTEROIDGAME\ASTEROIDGAME\X64\DEBUG\GAME.OBJ
D:\TYALU\DOCUMENTS\VISUAL STUDIO 2015\PROJECTS\ASTEROIDGAME\ASTEROIDGAME\X64\DEBUG\BULLET.OBJ
^D:\TYALU\DOCUMENTS\VISUAL STUDIO 2015\PROJECTS\ASTEROIDGAME\ASTEROIDGAME\BULLET.CPP|D:\TYALU\DOCUMENTS\VISUAL STUDIO 2015\PROJECTS\ASTEROIDGAME\ASTEROIDGAME\GAME.CPP|D:\TYALU\DOCUMENTS\VISUAL STUDIO 2015\PROJECTS\ASTEROIDGAME\ASTEROIDGAME\GAMEBUTTON.CPP|D:\TYALU\DOCUMENTS\VISUAL STUDIO 2015\PROJECTS\ASTEROIDGAME\ASTEROIDGAME\GAMESCENESTATE.CPP|D:\TYALU\DOCUMENTS\VISUAL STUDIO 2015\PROJECTS\ASTEROIDGAME\ASTEROIDGAME\GAMESTATE.CPP|D:\TYALU\DOCUMENTS\VISUAL STUDIO 2015\PROJECTS\ASTEROIDGAME\ASTEROIDGAME\GAMESTRATEGY.CPP|D:\TYALU\DOCUMENTS\VISUAL STUDIO 2015\PROJECTS\ASTEROIDGAME\ASTEROIDGAME\GENERATEDFILES\DEBUG\MOC_BULLET.CPP|D:\TYALU\DOCUMENTS\VISUAL STUDIO 2015\PROJECTS\ASTEROIDGAME\ASTEROIDGAME\GENERATEDFILES\DEBUG\MOC_GAMESTATE.CPP|D:\TYALU\DOCUMENTS\VISUAL STUDIO 2015\PROJECTS\ASTEROIDGAME\ASTEROIDGAME\GENERATEDFILES\DEBUG\MOC_MAINWINDOW.CPP|D:\TYALU\DOCUMENTS\VISUAL STUDIO 2015\PROJECTS\ASTEROIDGAME\ASTEROIDGAME\LOADINGSTATE.CPP|D:\TYALU\DOCUMENTS\VISUAL STUDIO 2015\PROJECTS\ASTEROIDGAME\ASTEROIDGAME\MAIN.CPP|D:\TYALU\DOCUMENTS\VISUAL STUDIO 2015\PROJECTS\ASTEROIDGAME\ASTEROIDGAME\MAINWINDOW.CPP|D:\TYALU\DOCUMENTS\VISUAL STUDIO 2015\PROJECTS\ASTEROIDGAME\ASTEROIDGAME\MENUSTATE.CPP|D:\TYALU\DOCUMENTS\VISUAL STUDIO 2015\PROJECTS\ASTEROIDGAME\ASTEROIDGAME\STATISTICSTATE.CPP
D:\TYALU\DOCUMENTS\VISUAL STUDIO 2015\PROJECTS\ASTEROIDGAME\ASTEROIDGAME\X64\DEBUG\VC140.PDB
D:\TYALU\DOCUMENTS\VISUAL STUDIO 2015\PROJECTS\ASTEROIDGAME\ASTEROIDGAME\X64\DEBUG\MAINWINDOW.OBJ
D:\TYALU\DOCUMENTS\VISUAL STUDIO 2015\PROJECTS\ASTEROIDGAME\ASTEROIDGAME\X64\DEBUG\MAIN.OBJ
D:\TYALU\DOCUMENTS\VISUAL STUDIO 2015\PROJECTS\ASTEROIDGAME\ASTEROIDGAME\X64\DEBUG\MOC_MAINWINDOW.OBJ
D:\TYALU\DOCUMENTS\VISUAL STUDIO 2015\PROJECTS\ASTEROIDGAME\ASTEROIDGAME\X64\DEBUG\GAMEBUTTON.OBJ
^D:\TYALU\DOCUMENTS\VISUAL STUDIO 2015\PROJECTS\ASTEROIDGAME\ASTEROIDGAME\BULLET.CPP|D:\TYALU\DOCUMENTS\VISUAL STUDIO 2015\PROJECTS\ASTEROIDGAME\ASTEROIDGAME\GAME.CPP|D:\TYALU\DOCUMENTS\VISUAL STUDIO 2015\PROJECTS\ASTEROIDGAME\ASTEROIDGAME\GAMESCENESTATE.CPP|D:\TYALU\DOCUMENTS\VISUAL STUDIO 2015\PROJECTS\ASTEROIDGAME\ASTEROIDGAME\GAMESTATE.CPP|D:\TYALU\DOCUMENTS\VISUAL STUDIO 2015\PROJECTS\ASTEROIDGAME\ASTEROIDGAME\GAMESTRATEGY.CPP|D:\TYALU\DOCUMENTS\VISUAL STUDIO 2015\PROJECTS\ASTEROIDGAME\ASTEROIDGAME\GENERATEDFILES\DEBUG\MOC_BULLET.CPP|D:\TYALU\DOCUMENTS\VISUAL STUDIO 2015\PROJECTS\ASTEROIDGAME\ASTEROIDGAME\GENERATEDFILES\DEBUG\MOC_GAMESTATE.CPP|D:\TYALU\DOCUMENTS\VISUAL STUDIO 2015\PROJECTS\ASTEROIDGAME\ASTEROIDGAME\LOADINGSTATE.CPP|D:\TYALU\DOCUMENTS\VISUAL STUDIO 2015\PROJECTS\ASTEROIDGAME\ASTEROIDGAME\MENUSTATE.CPP|D:\TYALU\DOCUMENTS\VISUAL STUDIO 2015\PROJECTS\ASTEROIDGAME\ASTEROIDGAME\STATISTICSTATE.CPP
D:\TYALU\DOCUMENTS\VISUAL STUDIO 2015\PROJECTS\ASTEROIDGAME\ASTEROIDGAME\X64\DEBUG\VC140.PDB
D:\TYALU\DOCUMENTS\VISUAL STUDIO 2015\PROJECTS\ASTEROIDGAME\ASTEROIDGAME\X64\DEBUG\STATISTICSTATE.OBJ
D:\TYALU\DOCUMENTS\VISUAL STUDIO 2015\PROJECTS\ASTEROIDGAME\ASTEROIDGAME\X64\DEBUG\MENUSTATE.OBJ
D:\TYALU\DOCUMENTS\VISUAL STUDIO 2015\PROJECTS\ASTEROIDGAME\ASTEROIDGAME\X64\DEBUG\LOADINGSTATE.OBJ
D:\TYALU\DOCUMENTS\VISUAL STUDIO 2015\PROJECTS\ASTEROIDGAME\ASTEROIDGAME\X64\DEBUG\MOC_BULLET.OBJ
D:\TYALU\DOCUMENTS\VISUAL STUDIO 2015\PROJECTS\ASTEROIDGAME\ASTEROIDGAME\X64\DEBUG\GAMESTRATEGY.OBJ
D:\TYALU\DOCUMENTS\VISUAL STUDIO 2015\PROJECTS\ASTEROIDGAME\ASTEROIDGAME\X64\DEBUG\GAMESTATE.OBJ
D:\TYALU\DOCUMENTS\VISUAL STUDIO 2015\PROJECTS\ASTEROIDGAME\ASTEROIDGAME\X64\DEBUG\GAMESCENESTATE.OBJ
D:\TYALU\DOCUMENTS\VISUAL STUDIO 2015\PROJECTS\ASTEROIDGAME\ASTEROIDGAME\X64\DEBUG\GAME.OBJ
D:\TYALU\DOCUMENTS\VISUAL STUDIO 2015\PROJECTS\ASTEROIDGAME\ASTEROIDGAME\X64\DEBUG\BULLET.OBJ
^D:\TYALU\DOCUMENTS\VISUAL STUDIO 2015\PROJECTS\ASTEROIDGAME\ASTEROIDGAME\BULLET.CPP|D:\TYALU\DOCUMENTS\VISUAL STUDIO 2015\PROJECTS\ASTEROIDGAME\ASTEROIDGAME\GAME.CPP|D:\TYALU\DOCUMENTS\VISUAL STUDIO 2015\PROJECTS\ASTEROIDGAME\ASTEROIDGAME\GAMEBUTTON.CPP|D:\TYALU\DOCUMENTS\VISUAL STUDIO 2015\PROJECTS\ASTEROIDGAME\ASTEROIDGAME\GAMESCENESTATE.CPP|D:\TYALU\DOCUMENTS\VISUAL STUDIO 2015\PROJECTS\ASTEROIDGAME\ASTEROIDGAME\GAMESTATE.CPP|D:\TYALU\DOCUMENTS\VISUAL STUDIO 2015\PROJECTS\ASTEROIDGAME\ASTEROIDGAME\GAMESTRATEGY.CPP|D:\TYALU\DOCUMENTS\VISUAL STUDIO 2015\PROJECTS\ASTEROIDGAME\ASTEROIDGAME\GENERATEDFILES\DEBUG\MOC_GAMESTATE.CPP|D:\TYALU\DOCUMENTS\VISUAL STUDIO 2015\PROJECTS\ASTEROIDGAME\ASTEROIDGAME\GENERATEDFILES\DEBUG\MOC_MAINWINDOW.CPP|D:\TYALU\DOCUMENTS\VISUAL STUDIO 2015\PROJECTS\ASTEROIDGAME\ASTEROIDGAME\LOADINGSTATE.CPP|D:\TYALU\DOCUMENTS\VISUAL STUDIO 2015\PROJECTS\ASTEROIDGAME\ASTEROIDGAME\MAIN.CPP|D:\TYALU\DOCUMENTS\VISUAL STUDIO 2015\PROJECTS\ASTEROIDGAME\ASTEROIDGAME\MAINWINDOW.CPP|D:\TYALU\DOCUMENTS\VISUAL STUDIO 2015\PROJECTS\ASTEROIDGAME\ASTEROIDGAME\MENUSTATE.CPP|D:\TYALU\DOCUMENTS\VISUAL STUDIO 2015\PROJECTS\ASTEROIDGAME\ASTEROIDGAME\STATISTICSTATE.CPP
D:\TYALU\DOCUMENTS\VISUAL STUDIO 2015\PROJECTS\ASTEROIDGAME\ASTEROIDGAME\X64\DEBUG\VC140.PDB
D:\TYALU\DOCUMENTS\VISUAL STUDIO 2015\PROJECTS\ASTEROIDGAME\ASTEROIDGAME\X64\DEBUG\STATISTICSTATE.OBJ
D:\TYALU\DOCUMENTS\VISUAL STUDIO 2015\PROJECTS\ASTEROIDGAME\ASTEROIDGAME\X64\DEBUG\MENUSTATE.OBJ
D:\TYALU\DOCUMENTS\VISUAL STUDIO 2015\PROJECTS\ASTEROIDGAME\ASTEROIDGAME\X64\DEBUG\LOADINGSTATE.OBJ
D:\TYALU\DOCUMENTS\VISUAL STUDIO 2015\PROJECTS\ASTEROIDGAME\ASTEROIDGAME\X64\DEBUG\MAINWINDOW.OBJ
D:\TYALU\DOCUMENTS\VISUAL STUDIO 2015\PROJECTS\ASTEROIDGAME\ASTEROIDGAME\X64\DEBUG\MAIN.OBJ
D:\TYALU\DOCUMENTS\VISUAL STUDIO 2015\PROJECTS\ASTEROIDGAME\ASTEROIDGAME\X64\DEBUG\MOC_MAINWINDOW.OBJ
D:\TYALU\DOCUMENTS\VISUAL STUDIO 2015\PROJECTS\ASTEROIDGAME\ASTEROIDGAME\X64\DEBUG\GAMESTRATEGY.OBJ
D:\TYALU\DOCUMENTS\VISUAL STUDIO 2015\PROJECTS\ASTEROIDGAME\ASTEROIDGAME\X64\DEBUG\GAMESTATE.OBJ
D:\TYALU\DOCUMENTS\VISUAL STUDIO 2015\PROJECTS\ASTEROIDGAME\ASTEROIDGAME\X64\DEBUG\GAMESCENESTATE.OBJ
D:\TYALU\DOCUMENTS\VISUAL STUDIO 2015\PROJECTS\ASTEROIDGAME\ASTEROIDGAME\X64\DEBUG\GAMEBUTTON.OBJ
D:\TYALU\DOCUMENTS\VISUAL STUDIO 2015\PROJECTS\ASTEROIDGAME\ASTEROIDGAME\X64\DEBUG\GAME.OBJ
D:\TYALU\DOCUMENTS\VISUAL STUDIO 2015\PROJECTS\ASTEROIDGAME\ASTEROIDGAME\X64\DEBUG\BULLET.OBJ
^D:\TYALU\DOCUMENTS\VISUAL STUDIO 2015\PROJECTS\ASTEROIDGAME\ASTEROIDGAME\GAME.CPP|D:\TYALU\DOCUMENTS\VISUAL STUDIO 2015\PROJECTS\ASTEROIDGAME\ASTEROIDGAME\GAMEBUTTON.CPP|D:\TYALU\DOCUMENTS\VISUAL STUDIO 2015\PROJECTS\ASTEROIDGAME\ASTEROIDGAME\GAMESCENESTATE.CPP|D:\TYALU\DOCUMENTS\VISUAL STUDIO 2015\PROJECTS\ASTEROIDGAME\ASTEROIDGAME\GAMESTATE.CPP|D:\TYALU\DOCUMENTS\VISUAL STUDIO 2015\PROJECTS\ASTEROIDGAME\ASTEROIDGAME\GAMESTRATEGY.CPP|D:\TYALU\DOCUMENTS\VISUAL STUDIO 2015\PROJECTS\ASTEROIDGAME\ASTEROIDGAME\GENERATEDFILES\DEBUG\MOC_GAMESTATE.CPP|D:\TYALU\DOCUMENTS\VISUAL STUDIO 2015\PROJECTS\ASTEROIDGAME\ASTEROIDGAME\GENERATEDFILES\DEBUG\MOC_MAINWINDOW.CPP|D:\TYALU\DOCUMENTS\VISUAL STUDIO 2015\PROJECTS\ASTEROIDGAME\ASTEROIDGAME\LOADINGSTATE.CPP|D:\TYALU\DOCUMENTS\VISUAL STUDIO 2015\PROJECTS\ASTEROIDGAME\ASTEROIDGAME\MAIN.CPP|D:\TYALU\DOCUMENTS\VISUAL STUDIO 2015\PROJECTS\ASTEROIDGAME\ASTEROIDGAME\MAINWINDOW.CPP|D:\TYALU\DOCUMENTS\VISUAL STUDIO 2015\PROJECTS\ASTEROIDGAME\ASTEROIDGAME\MENUSTATE.CPP|D:\TYALU\DOCUMENTS\VISUAL STUDIO 2015\PROJECTS\ASTEROIDGAME\ASTEROIDGAME\STATISTICSTATE.CPP
D:\TYALU\DOCUMENTS\VISUAL STUDIO 2015\PROJECTS\ASTEROIDGAME\ASTEROIDGAME\X64\DEBUG\VC140.PDB
D:\TYALU\DOCUMENTS\VISUAL STUDIO 2015\PROJECTS\ASTEROIDGAME\ASTEROIDGAME\X64\DEBUG\STATISTICSTATE.OBJ
D:\TYALU\DOCUMENTS\VISUAL STUDIO 2015\PROJECTS\ASTEROIDGAME\ASTEROIDGAME\X64\DEBUG\MENUSTATE.OBJ
D:\TYALU\DOCUMENTS\VISUAL STUDIO 2015\PROJECTS\ASTEROIDGAME\ASTEROIDGAME\X64\DEBUG\LOADINGSTATE.OBJ
D:\TYALU\DOCUMENTS\VISUAL STUDIO 2015\PROJECTS\ASTEROIDGAME\ASTEROIDGAME\X64\DEBUG\MAINWINDOW.OBJ
D:\TYALU\DOCUMENTS\VISUAL STUDIO 2015\PROJECTS\ASTEROIDGAME\ASTEROIDGAME\X64\DEBUG\MAIN.OBJ
D:\TYALU\DOCUMENTS\VISUAL STUDIO 2015\PROJECTS\ASTEROIDGAME\ASTEROIDGAME\X64\DEBUG\MOC_MAINWINDOW.OBJ
D:\TYALU\DOCUMENTS\VISUAL STUDIO 2015\PROJECTS\ASTEROIDGAME\ASTEROIDGAME\X64\DEBUG\GAMESTRATEGY.OBJ
D:\TYALU\DOCUMENTS\VISUAL STUDIO 2015\PROJECTS\ASTEROIDGAME\ASTEROIDGAME\X64\DEBUG\GAMESTATE.OBJ
D:\TYALU\DOCUMENTS\VISUAL STUDIO 2015\PROJECTS\ASTEROIDGAME\ASTEROIDGAME\X64\DEBUG\GAMESCENESTATE.OBJ
D:\TYALU\DOCUMENTS\VISUAL STUDIO 2015\PROJECTS\ASTEROIDGAME\ASTEROIDGAME\X64\DEBUG\GAMEBUTTON.OBJ
D:\TYALU\DOCUMENTS\VISUAL STUDIO 2015\PROJECTS\ASTEROIDGAME\ASTEROIDGAME\X64\DEBUG\GAME.OBJ
^D:\TYALU\DOCUMENTS\VISUAL STUDIO 2015\PROJECTS\ASTEROIDGAME\ASTEROIDGAME\GAME.CPP|D:\TYALU\DOCUMENTS\VISUAL STUDIO 2015\PROJECTS\ASTEROIDGAME\ASTEROIDGAME\GAMEBUTTON.CPP|D:\TYALU\DOCUMENTS\VISUAL STUDIO 2015\PROJECTS\ASTEROIDGAME\ASTEROIDGAME\GAMESCENESTATE.CPP|D:\TYALU\DOCUMENTS\VISUAL STUDIO 2015\PROJECTS\ASTEROIDGAME\ASTEROIDGAME\GAMESTATE.CPP|D:\TYALU\DOCUMENTS\VISUAL STUDIO 2015\PROJECTS\ASTEROIDGAME\ASTEROIDGAME\GAMESTRATEGY.CPP|D:\TYALU\DOCUMENTS\VISUAL STUDIO 2015\PROJECTS\ASTEROIDGAME\ASTEROIDGAME\GENERATEDFILES\DEBUG\MOC_MAINWINDOW.CPP|D:\TYALU\DOCUMENTS\VISUAL STUDIO 2015\PROJECTS\ASTEROIDGAME\ASTEROIDGAME\LOADINGSTATE.CPP|D:\TYALU\DOCUMENTS\VISUAL STUDIO 2015\PROJECTS\ASTEROIDGAME\ASTEROIDGAME\MAIN.CPP|D:\TYALU\DOCUMENTS\VISUAL STUDIO 2015\PROJECTS\ASTEROIDGAME\ASTEROIDGAME\MAINWINDOW.CPP|D:\TYALU\DOCUMENTS\VISUAL STUDIO 2015\PROJECTS\ASTEROIDGAME\ASTEROIDGAME\MENUSTATE.CPP|D:\TYALU\DOCUMENTS\VISUAL STUDIO 2015\PROJECTS\ASTEROIDGAME\ASTEROIDGAME\STATISTICSTATE.CPP
D:\TYALU\DOCUMENTS\VISUAL STUDIO 2015\PROJECTS\ASTEROIDGAME\ASTEROIDGAME\X64\DEBUG\VC140.PDB
D:\TYALU\DOCUMENTS\VISUAL STUDIO 2015\PROJECTS\ASTEROIDGAME\ASTEROIDGAME\X64\DEBUG\MAINWINDOW.OBJ
D:\TYALU\DOCUMENTS\VISUAL STUDIO 2015\PROJECTS\ASTEROIDGAME\ASTEROIDGAME\X64\DEBUG\MAIN.OBJ
D:\TYALU\DOCUMENTS\VISUAL STUDIO 2015\PROJECTS\ASTEROIDGAME\ASTEROIDGAME\X64\DEBUG\STATISTICSTATE.OBJ
D:\TYALU\DOCUMENTS\VISUAL STUDIO 2015\PROJECTS\ASTEROIDGAME\ASTEROIDGAME\X64\DEBUG\MENUSTATE.OBJ
D:\TYALU\DOCUMENTS\VISUAL STUDIO 2015\PROJECTS\ASTEROIDGAME\ASTEROIDGAME\X64\DEBUG\LOADINGSTATE.OBJ
D:\TYALU\DOCUMENTS\VISUAL STUDIO 2015\PROJECTS\ASTEROIDGAME\ASTEROIDGAME\X64\DEBUG\MOC_MAINWINDOW.OBJ
D:\TYALU\DOCUMENTS\VISUAL STUDIO 2015\PROJECTS\ASTEROIDGAME\ASTEROIDGAME\X64\DEBUG\GAMESTRATEGY.OBJ
D:\TYALU\DOCUMENTS\VISUAL STUDIO 2015\PROJECTS\ASTEROIDGAME\ASTEROIDGAME\X64\DEBUG\GAMESTATE.OBJ
D:\TYALU\DOCUMENTS\VISUAL STUDIO 2015\PROJECTS\ASTEROIDGAME\ASTEROIDGAME\X64\DEBUG\GAMESCENESTATE.OBJ
D:\TYALU\DOCUMENTS\VISUAL STUDIO 2015\PROJECTS\ASTEROIDGAME\ASTEROIDGAME\X64\DEBUG\GAMEBUTTON.OBJ
D:\TYALU\DOCUMENTS\VISUAL STUDIO 2015\PROJECTS\ASTEROIDGAME\ASTEROIDGAME\X64\DEBUG\GAME.OBJ
^D:\TYALU\DOCUMENTS\VISUAL STUDIO 2015\PROJECTS\ASTEROIDGAME\ASTEROIDGAME\ASTEROID.CPP|D:\TYALU\DOCUMENTS\VISUAL STUDIO 2015\PROJECTS\ASTEROIDGAME\ASTEROIDGAME\GAME.CPP|D:\TYALU\DOCUMENTS\VISUAL STUDIO 2015\PROJECTS\ASTEROIDGAME\ASTEROIDGAME\GAMESCENESTATE.CPP|D:\TYALU\DOCUMENTS\VISUAL STUDIO 2015\PROJECTS\ASTEROIDGAME\ASTEROIDGAME\GAMESTATE.CPP|D:\TYALU\DOCUMENTS\VISUAL STUDIO 2015\PROJECTS\ASTEROIDGAME\ASTEROIDGAME\GAMESTRATEGY.CPP|D:\TYALU\DOCUMENTS\VISUAL STUDIO 2015\PROJECTS\ASTEROIDGAME\ASTEROIDGAME\GENERATEDFILES\DEBUG\MOC_ASTEROID.CPP|D:\TYALU\DOCUMENTS\VISUAL STUDIO 2015\PROJECTS\ASTEROIDGAME\ASTEROIDGAME\LOADINGSTATE.CPP|D:\TYALU\DOCUMENTS\VISUAL STUDIO 2015\PROJECTS\ASTEROIDGAME\ASTEROIDGAME\MENUSTATE.CPP|D:\TYALU\DOCUMENTS\VISUAL STUDIO 2015\PROJECTS\ASTEROIDGAME\ASTEROIDGAME\STATISTICSTATE.CPP
D:\TYALU\DOCUMENTS\VISUAL STUDIO 2015\PROJECTS\ASTEROIDGAME\ASTEROIDGAME\X64\DEBUG\VC140.PDB
D:\TYALU\DOCUMENTS\VISUAL STUDIO 2015\PROJECTS\ASTEROIDGAME\ASTEROIDGAME\X64\DEBUG\STATISTICSTATE.OBJ
D:\TYALU\DOCUMENTS\VISUAL STUDIO 2015\PROJECTS\ASTEROIDGAME\ASTEROIDGAME\X64\DEBUG\MENUSTATE.OBJ
D:\TYALU\DOCUMENTS\VISUAL STUDIO 2015\PROJECTS\ASTEROIDGAME\ASTEROIDGAME\X64\DEBUG\LOADINGSTATE.OBJ
D:\TYALU\DOCUMENTS\VISUAL STUDIO 2015\PROJECTS\ASTEROIDGAME\ASTEROIDGAME\X64\DEBUG\GAMESTRATEGY.OBJ
D:\TYALU\DOCUMENTS\VISUAL STUDIO 2015\PROJECTS\ASTEROIDGAME\ASTEROIDGAME\X64\DEBUG\GAMESTATE.OBJ
D:\TYALU\DOCUMENTS\VISUAL STUDIO 2015\PROJECTS\ASTEROIDGAME\ASTEROIDGAME\X64\DEBUG\GAMESCENESTATE.OBJ
D:\TYALU\DOCUMENTS\VISUAL STUDIO 2015\PROJECTS\ASTEROIDGAME\ASTEROIDGAME\X64\DEBUG\GAME.OBJ
^D:\TYALU\DOCUMENTS\VISUAL STUDIO 2015\PROJECTS\ASTEROIDGAME\ASTEROIDGAME\ASTEROID.CPP|D:\TYALU\DOCUMENTS\VISUAL STUDIO 2015\PROJECTS\ASTEROIDGAME\ASTEROIDGAME\GAME.CPP|D:\TYALU\DOCUMENTS\VISUAL STUDIO 2015\PROJECTS\ASTEROIDGAME\ASTEROIDGAME\GAMESCENESTATE.CPP|D:\TYALU\DOCUMENTS\VISUAL STUDIO 2015\PROJECTS\ASTEROIDGAME\ASTEROIDGAME\GAMESTATE.CPP|D:\TYALU\DOCUMENTS\VISUAL STUDIO 2015\PROJECTS\ASTEROIDGAME\ASTEROIDGAME\GAMESTRATEGY.CPP|D:\TYALU\DOCUMENTS\VISUAL STUDIO 2015\PROJECTS\ASTEROIDGAME\ASTEROIDGAME\LOADINGSTATE.CPP|D:\TYALU\DOCUMENTS\VISUAL STUDIO 2015\PROJECTS\ASTEROIDGAME\ASTEROIDGAME\MENUSTATE.CPP|D:\TYALU\DOCUMENTS\VISUAL STUDIO 2015\PROJECTS\ASTEROIDGAME\ASTEROIDGAME\STATISTICSTATE.CPP
D:\TYALU\DOCUMENTS\VISUAL STUDIO 2015\PROJECTS\ASTEROIDGAME\ASTEROIDGAME\X64\DEBUG\VC140.PDB
D:\TYALU\DOCUMENTS\VISUAL STUDIO 2015\PROJECTS\ASTEROIDGAME\ASTEROIDGAME\X64\DEBUG\STATISTICSTATE.OBJ
D:\TYALU\DOCUMENTS\VISUAL STUDIO 2015\PROJECTS\ASTEROIDGAME\ASTEROIDGAME\X64\DEBUG\MENUSTATE.OBJ
D:\TYALU\DOCUMENTS\VISUAL STUDIO 2015\PROJECTS\ASTEROIDGAME\ASTEROIDGAME\X64\DEBUG\LOADINGSTATE.OBJ
D:\TYALU\DOCUMENTS\VISUAL STUDIO 2015\PROJECTS\ASTEROIDGAME\ASTEROIDGAME\X64\DEBUG\GAMESTRATEGY.OBJ
D:\TYALU\DOCUMENTS\VISUAL STUDIO 2015\PROJECTS\ASTEROIDGAME\ASTEROIDGAME\X64\DEBUG\GAMESTATE.OBJ
D:\TYALU\DOCUMENTS\VISUAL STUDIO 2015\PROJECTS\ASTEROIDGAME\ASTEROIDGAME\X64\DEBUG\GAMESCENESTATE.OBJ
D:\TYALU\DOCUMENTS\VISUAL STUDIO 2015\PROJECTS\ASTEROIDGAME\ASTEROIDGAME\X64\DEBUG\GAME.OBJ
D:\TYALU\DOCUMENTS\VISUAL STUDIO 2015\PROJECTS\ASTEROIDGAME\ASTEROIDGAME\X64\DEBUG\ASTEROID.OBJ
^D:\TYALU\DOCUMENTS\VISUAL STUDIO 2015\PROJECTS\ASTEROIDGAME\ASTEROIDGAME\GAME.CPP|D:\TYALU\DOCUMENTS\VISUAL STUDIO 2015\PROJECTS\ASTEROIDGAME\ASTEROIDGAME\GAMESCENESTATE.CPP|D:\TYALU\DOCUMENTS\VISUAL STUDIO 2015\PROJECTS\ASTEROIDGAME\ASTEROIDGAME\GAMESTATE.CPP|D:\TYALU\DOCUMENTS\VISUAL STUDIO 2015\PROJECTS\ASTEROIDGAME\ASTEROIDGAME\GAMESTRATEGY.CPP|D:\TYALU\DOCUMENTS\VISUAL STUDIO 2015\PROJECTS\ASTEROIDGAME\ASTEROIDGAME\LOADINGSTATE.CPP|D:\TYALU\DOCUMENTS\VISUAL STUDIO 2015\PROJECTS\ASTEROIDGAME\ASTEROIDGAME\LOG.CPP|D:\TYALU\DOCUMENTS\VISUAL STUDIO 2015\PROJECTS\ASTEROIDGAME\ASTEROIDGAME\MAIN.CPP|D:\TYALU\DOCUMENTS\VISUAL STUDIO 2015\PROJECTS\ASTEROIDGAME\ASTEROIDGAME\MENUSTATE.CPP|D:\TYALU\DOCUMENTS\VISUAL STUDIO 2015\PROJECTS\ASTEROIDGAME\ASTEROIDGAME\STATISTICSTATE.CPP
D:\TYALU\DOCUMENTS\VISUAL STUDIO 2015\PROJECTS\ASTEROIDGAME\ASTEROIDGAME\X64\DEBUG\VC140.PDB
D:\TYALU\DOCUMENTS\VISUAL STUDIO 2015\PROJECTS\ASTEROIDGAME\ASTEROIDGAME\X64\DEBUG\MAIN.OBJ
D:\TYALU\DOCUMENTS\VISUAL STUDIO 2015\PROJECTS\ASTEROIDGAME\ASTEROIDGAME\X64\DEBUG\STATISTICSTATE.OBJ
D:\TYALU\DOCUMENTS\VISUAL STUDIO 2015\PROJECTS\ASTEROIDGAME\ASTEROIDGAME\X64\DEBUG\MENUSTATE.OBJ
D:\TYALU\DOCUMENTS\VISUAL STUDIO 2015\PROJECTS\ASTEROIDGAME\ASTEROIDGAME\X64\DEBUG\LOG.OBJ
D:\TYALU\DOCUMENTS\VISUAL STUDIO 2015\PROJECTS\ASTEROIDGAME\ASTEROIDGAME\X64\DEBUG\LOADINGSTATE.OBJ
D:\TYALU\DOCUMENTS\VISUAL STUDIO 2015\PROJECTS\ASTEROIDGAME\ASTEROIDGAME\X64\DEBUG\GAMESTRATEGY.OBJ
D:\TYALU\DOCUMENTS\VISUAL STUDIO 2015\PROJECTS\ASTEROIDGAME\ASTEROIDGAME\X64\DEBUG\GAMESTATE.OBJ
D:\TYALU\DOCUMENTS\VISUAL STUDIO 2015\PROJECTS\ASTEROIDGAME\ASTEROIDGAME\X64\DEBUG\GAMESCENESTATE.OBJ
D:\TYALU\DOCUMENTS\VISUAL STUDIO 2015\PROJECTS\ASTEROIDGAME\ASTEROIDGAME\X64\DEBUG\GAME.OBJ
^D:\TYALU\DOCUMENTS\VISUAL STUDIO 2015\PROJECTS\ASTEROIDGAME\ASTEROIDGAME\ASTEROID.CPP|D:\TYALU\DOCUMENTS\VISUAL STUDIO 2015\PROJECTS\ASTEROIDGAME\ASTEROIDGAME\BULLET.CPP|D:\TYALU\DOCUMENTS\VISUAL STUDIO 2015\PROJECTS\ASTEROIDGAME\ASTEROIDGAME\GAME.CPP|D:\TYALU\DOCUMENTS\VISUAL STUDIO 2015\PROJECTS\ASTEROIDGAME\ASTEROIDGAME\GAMESCENESTATE.CPP|D:\TYALU\DOCUMENTS\VISUAL STUDIO 2015\PROJECTS\ASTEROIDGAME\ASTEROIDGAME\GAMESTATE.CPP|D:\TYALU\DOCUMENTS\VISUAL STUDIO 2015\PROJECTS\ASTEROIDGAME\ASTEROIDGAME\GAMESTRATEGY.CPP|D:\TYALU\DOCUMENTS\VISUAL STUDIO 2015\PROJECTS\ASTEROIDGAME\ASTEROIDGAME\GRAPHICOBJECT.CPP|D:\TYALU\DOCUMENTS\VISUAL STUDIO 2015\PROJECTS\ASTEROIDGAME\ASTEROIDGAME\LOADINGSTATE.CPP|D:\TYALU\DOCUMENTS\VISUAL STUDIO 2015\PROJECTS\ASTEROIDGAME\ASTEROIDGAME\MENUSTATE.CPP|D:\TYALU\DOCUMENTS\VISUAL STUDIO 2015\PROJECTS\ASTEROIDGAME\ASTEROIDGAME\STATISTICSTATE.CPP
D:\TYALU\DOCUMENTS\VISUAL STUDIO 2015\PROJECTS\ASTEROIDGAME\ASTEROIDGAME\X64\DEBUG\VC140.PDB
D:\TYALU\DOCUMENTS\VISUAL STUDIO 2015\PROJECTS\ASTEROIDGAME\ASTEROIDGAME\X64\DEBUG\STATISTICSTATE.OBJ
D:\TYALU\DOCUMENTS\VISUAL STUDIO 2015\PROJECTS\ASTEROIDGAME\ASTEROIDGAME\X64\DEBUG\MENUSTATE.OBJ
D:\TYALU\DOCUMENTS\VISUAL STUDIO 2015\PROJECTS\ASTEROIDGAME\ASTEROIDGAME\X64\DEBUG\LOADINGSTATE.OBJ
D:\TYALU\DOCUMENTS\VISUAL STUDIO 2015\PROJECTS\ASTEROIDGAME\ASTEROIDGAME\X64\DEBUG\GRAPHICOBJECT.OBJ
D:\TYALU\DOCUMENTS\VISUAL STUDIO 2015\PROJECTS\ASTEROIDGAME\ASTEROIDGAME\X64\DEBUG\GAMESTRATEGY.OBJ
D:\TYALU\DOCUMENTS\VISUAL STUDIO 2015\PROJECTS\ASTEROIDGAME\ASTEROIDGAME\X64\DEBUG\GAMESTATE.OBJ
D:\TYALU\DOCUMENTS\VISUAL STUDIO 2015\PROJECTS\ASTEROIDGAME\ASTEROIDGAME\X64\DEBUG\GAMESCENESTATE.OBJ
D:\TYALU\DOCUMENTS\VISUAL STUDIO 2015\PROJECTS\ASTEROIDGAME\ASTEROIDGAME\X64\DEBUG\GAME.OBJ
D:\TYALU\DOCUMENTS\VISUAL STUDIO 2015\PROJECTS\ASTEROIDGAME\ASTEROIDGAME\X64\DEBUG\BULLET.OBJ
D:\TYALU\DOCUMENTS\VISUAL STUDIO 2015\PROJECTS\ASTEROIDGAME\ASTEROIDGAME\X64\DEBUG\ASTEROID.OBJ
^D:\TYALU\DOCUMENTS\VISUAL STUDIO 2015\PROJECTS\ASTEROIDGAME\ASTEROIDGAME\ASTEROID.CPP|D:\TYALU\DOCUMENTS\VISUAL STUDIO 2015\PROJECTS\ASTEROIDGAME\ASTEROIDGAME\GAME.CPP|D:\TYALU\DOCUMENTS\VISUAL STUDIO 2015\PROJECTS\ASTEROIDGAME\ASTEROIDGAME\GAMEBUTTON.CPP|D:\TYALU\DOCUMENTS\VISUAL STUDIO 2015\PROJECTS\ASTEROIDGAME\ASTEROIDGAME\GAMESCENESTATE.CPP|D:\TYALU\DOCUMENTS\VISUAL STUDIO 2015\PROJECTS\ASTEROIDGAME\ASTEROIDGAME\GAMESTATE.CPP|D:\TYALU\DOCUMENTS\VISUAL STUDIO 2015\PROJECTS\ASTEROIDGAME\ASTEROIDGAME\GAMESTRATEGY.CPP|D:\TYALU\DOCUMENTS\VISUAL STUDIO 2015\PROJECTS\ASTEROIDGAME\ASTEROIDGAME\GRAPHICOBJECT.CPP|D:\TYALU\DOCUMENTS\VISUAL STUDIO 2015\PROJECTS\ASTEROIDGAME\ASTEROIDGAME\LOADINGSTATE.CPP|D:\TYALU\DOCUMENTS\VISUAL STUDIO 2015\PROJECTS\ASTEROIDGAME\ASTEROIDGAME\MAIN.CPP|D:\TYALU\DOCUMENTS\VISUAL STUDIO 2015\PROJECTS\ASTEROIDGAME\ASTEROIDGAME\MAINWINDOW.CPP|D:\TYALU\DOCUMENTS\VISUAL STUDIO 2015\PROJECTS\ASTEROIDGAME\ASTEROIDGAME\MENUSTATE.CPP|D:\TYALU\DOCUMENTS\VISUAL STUDIO 2015\PROJECTS\ASTEROIDGAME\ASTEROIDGAME\STATISTICSTATE.CPP
D:\TYALU\DOCUMENTS\VISUAL STUDIO 2015\PROJECTS\ASTEROIDGAME\ASTEROIDGAME\X64\DEBUG\VC140.PDB
D:\TYALU\DOCUMENTS\VISUAL STUDIO 2015\PROJECTS\ASTEROIDGAME\ASTEROIDGAME\X64\DEBUG\GRAPHICOBJECT.OBJ
D:\TYALU\DOCUMENTS\VISUAL STUDIO 2015\PROJECTS\ASTEROIDGAME\ASTEROIDGAME\X64\DEBUG\ASTEROID.OBJ
^D:\TYALU\DOCUMENTS\VISUAL STUDIO 2015\PROJECTS\ASTEROIDGAME\ASTEROIDGAME\ASTEROID.CPP|D:\TYALU\DOCUMENTS\VISUAL STUDIO 2015\PROJECTS\ASTEROIDGAME\ASTEROIDGAME\GAME.CPP|D:\TYALU\DOCUMENTS\VISUAL STUDIO 2015\PROJECTS\ASTEROIDGAME\ASTEROIDGAME\GAMESCENESTATE.CPP|D:\TYALU\DOCUMENTS\VISUAL STUDIO 2015\PROJECTS\ASTEROIDGAME\ASTEROIDGAME\GAMESTATE.CPP|D:\TYALU\DOCUMENTS\VISUAL STUDIO 2015\PROJECTS\ASTEROIDGAME\ASTEROIDGAME\GAMESTRATEGY.CPP|D:\TYALU\DOCUMENTS\VISUAL STUDIO 2015\PROJECTS\ASTEROIDGAME\ASTEROIDGAME\LOADINGSTATE.CPP|D:\TYALU\DOCUMENTS\VISUAL STUDIO 2015\PROJECTS\ASTEROIDGAME\ASTEROIDGAME\LOG.CPP|D:\TYALU\DOCUMENTS\VISUAL STUDIO 2015\PROJECTS\ASTEROIDGAME\ASTEROIDGAME\MAIN.CPP|D:\TYALU\DOCUMENTS\VISUAL STUDIO 2015\PROJECTS\ASTEROIDGAME\ASTEROIDGAME\MENUSTATE.CPP|D:\TYALU\DOCUMENTS\VISUAL STUDIO 2015\PROJECTS\ASTEROIDGAME\ASTEROIDGAME\STATISTICSTATE.CPP
D:\TYALU\DOCUMENTS\VISUAL STUDIO 2015\PROJECTS\ASTEROIDGAME\ASTEROIDGAME\X64\DEBUG\VC140.PDB
D:\TYALU\DOCUMENTS\VISUAL STUDIO 2015\PROJECTS\ASTEROIDGAME\ASTEROIDGAME\X64\DEBUG\MAIN.OBJ
D:\TYALU\DOCUMENTS\VISUAL STUDIO 2015\PROJECTS\ASTEROIDGAME\ASTEROIDGAME\X64\DEBUG\STATISTICSTATE.OBJ
D:\TYALU\DOCUMENTS\VISUAL STUDIO 2015\PROJECTS\ASTEROIDGAME\ASTEROIDGAME\X64\DEBUG\MENUSTATE.OBJ
D:\TYALU\DOCUMENTS\VISUAL STUDIO 2015\PROJECTS\ASTEROIDGAME\ASTEROIDGAME\X64\DEBUG\LOG.OBJ
D:\TYALU\DOCUMENTS\VISUAL STUDIO 2015\PROJECTS\ASTEROIDGAME\ASTEROIDGAME\X64\DEBUG\LOADINGSTATE.OBJ
D:\TYALU\DOCUMENTS\VISUAL STUDIO 2015\PROJECTS\ASTEROIDGAME\ASTEROIDGAME\X64\DEBUG\GAMESTRATEGY.OBJ
D:\TYALU\DOCUMENTS\VISUAL STUDIO 2015\PROJECTS\ASTEROIDGAME\ASTEROIDGAME\X64\DEBUG\GAMESTATE.OBJ
D:\TYALU\DOCUMENTS\VISUAL STUDIO 2015\PROJECTS\ASTEROIDGAME\ASTEROIDGAME\X64\DEBUG\GAMESCENESTATE.OBJ
D:\TYALU\DOCUMENTS\VISUAL STUDIO 2015\PROJECTS\ASTEROIDGAME\ASTEROIDGAME\X64\DEBUG\GAME.OBJ
D:\TYALU\DOCUMENTS\VISUAL STUDIO 2015\PROJECTS\ASTEROIDGAME\ASTEROIDGAME\X64\DEBUG\ASTEROID.OBJ
^D:\TYALU\DOCUMENTS\VISUAL STUDIO 2015\PROJECTS\ASTEROIDGAME\ASTEROIDGAME\ASTEROID.CPP|D:\TYALU\DOCUMENTS\VISUAL STUDIO 2015\PROJECTS\ASTEROIDGAME\ASTEROIDGAME\GAMESCENESTATE.CPP
D:\TYALU\DOCUMENTS\VISUAL STUDIO 2015\PROJECTS\ASTEROIDGAME\ASTEROIDGAME\X64\DEBUG\VC140.PDB
D:\TYALU\DOCUMENTS\VISUAL STUDIO 2015\PROJECTS\ASTEROIDGAME\ASTEROIDGAME\X64\DEBUG\GAMESCENESTATE.OBJ
D:\TYALU\DOCUMENTS\VISUAL STUDIO 2015\PROJECTS\ASTEROIDGAME\ASTEROIDGAME\X64\DEBUG\ASTEROID.OBJ
^D:\TYALU\DOCUMENTS\VISUAL STUDIO 2015\PROJECTS\ASTEROIDGAME\ASTEROIDGAME\ASTEROID.CPP|D:\TYALU\DOCUMENTS\VISUAL STUDIO 2015\PROJECTS\ASTEROIDGAME\ASTEROIDGAME\GAME.CPP|D:\TYALU\DOCUMENTS\VISUAL STUDIO 2015\PROJECTS\ASTEROIDGAME\ASTEROIDGAME\GAMEBUTTON.CPP|D:\TYALU\DOCUMENTS\VISUAL STUDIO 2015\PROJECTS\ASTEROIDGAME\ASTEROIDGAME\GAMESCENESTATE.CPP|D:\TYALU\DOCUMENTS\VISUAL STUDIO 2015\PROJECTS\ASTEROIDGAME\ASTEROIDGAME\GAMESTATE.CPP|D:\TYALU\DOCUMENTS\VISUAL STUDIO 2015\PROJECTS\ASTEROIDGAME\ASTEROIDGAME\GAMESTRATEGY.CPP|D:\TYALU\DOCUMENTS\VISUAL STUDIO 2015\PROJECTS\ASTEROIDGAME\ASTEROIDGAME\LOADINGSTATE.CPP|D:\TYALU\DOCUMENTS\VISUAL STUDIO 2015\PROJECTS\ASTEROIDGAME\ASTEROIDGAME\MAIN.CPP|D:\TYALU\DOCUMENTS\VISUAL STUDIO 2015\PROJECTS\ASTEROIDGAME\ASTEROIDGAME\MAINWINDOW.CPP|D:\TYALU\DOCUMENTS\VISUAL STUDIO 2015\PROJECTS\ASTEROIDGAME\ASTEROIDGAME\MENUSTATE.CPP|D:\TYALU\DOCUMENTS\VISUAL STUDIO 2015\PROJECTS\ASTEROIDGAME\ASTEROIDGAME\PLAYER.CPP|D:\TYALU\DOCUMENTS\VISUAL STUDIO 2015\PROJECTS\ASTEROIDGAME\ASTEROIDGAME\STATISTICSTATE.CPP
D:\TYALU\DOCUMENTS\VISUAL STUDIO 2015\PROJECTS\ASTEROIDGAME\ASTEROIDGAME\X64\DEBUG\VC140.PDB
D:\TYALU\DOCUMENTS\VISUAL STUDIO 2015\PROJECTS\ASTEROIDGAME\ASTEROIDGAME\X64\DEBUG\MAINWINDOW.OBJ
D:\TYALU\DOCUMENTS\VISUAL STUDIO 2015\PROJECTS\ASTEROIDGAME\ASTEROIDGAME\X64\DEBUG\MAIN.OBJ
D:\TYALU\DOCUMENTS\VISUAL STUDIO 2015\PROJECTS\ASTEROIDGAME\ASTEROIDGAME\X64\DEBUG\STATISTICSTATE.OBJ
D:\TYALU\DOCUMENTS\VISUAL STUDIO 2015\PROJECTS\ASTEROIDGAME\ASTEROIDGAME\X64\DEBUG\PLAYER.OBJ
D:\TYALU\DOCUMENTS\VISUAL STUDIO 2015\PROJECTS\ASTEROIDGAME\ASTEROIDGAME\X64\DEBUG\MENUSTATE.OBJ
D:\TYALU\DOCUMENTS\VISUAL STUDIO 2015\PROJECTS\ASTEROIDGAME\ASTEROIDGAME\X64\DEBUG\LOADINGSTATE.OBJ
D:\TYALU\DOCUMENTS\VISUAL STUDIO 2015\PROJECTS\ASTEROIDGAME\ASTEROIDGAME\X64\DEBUG\GAMESTRATEGY.OBJ
D:\TYALU\DOCUMENTS\VISUAL STUDIO 2015\PROJECTS\ASTEROIDGAME\ASTEROIDGAME\X64\DEBUG\GAMESTATE.OBJ
D:\TYALU\DOCUMENTS\VISUAL STUDIO 2015\PROJECTS\ASTEROIDGAME\ASTEROIDGAME\X64\DEBUG\GAMESCENESTATE.OBJ
D:\TYALU\DOCUMENTS\VISUAL STUDIO 2015\PROJECTS\ASTEROIDGAME\ASTEROIDGAME\X64\DEBUG\GAMEBUTTON.OBJ
D:\TYALU\DOCUMENTS\VISUAL STUDIO 2015\PROJECTS\ASTEROIDGAME\ASTEROIDGAME\X64\DEBUG\GAME.OBJ
D:\TYALU\DOCUMENTS\VISUAL STUDIO 2015\PROJECTS\ASTEROIDGAME\ASTEROIDGAME\X64\DEBUG\ASTEROID.OBJ
^D:\TYALU\DOCUMENTS\VISUAL STUDIO 2015\PROJECTS\ASTEROIDGAME\ASTEROIDGAME\MAINWINDOW.CPP|D:\TYALU\DOCUMENTS\VISUAL STUDIO 2015\PROJECTS\ASTEROIDGAME\ASTEROIDGAME\STATISTICSTATE.CPP
D:\TYALU\DOCUMENTS\VISUAL STUDIO 2015\PROJECTS\ASTEROIDGAME\ASTEROIDGAME\X64\DEBUG\VC140.PDB
D:\TYALU\DOCUMENTS\VISUAL STUDIO 2015\PROJECTS\ASTEROIDGAME\ASTEROIDGAME\X64\DEBUG\MAINWINDOW.OBJ
D:\TYALU\DOCUMENTS\VISUAL STUDIO 2015\PROJECTS\ASTEROIDGAME\ASTEROIDGAME\X64\DEBUG\STATISTICSTATE.OBJ
^D:\TYALU\DOCUMENTS\VISUAL STUDIO 2015\PROJECTS\ASTEROIDGAME\ASTEROIDGAME\GAME.CPP|D:\TYALU\DOCUMENTS\VISUAL STUDIO 2015\PROJECTS\ASTEROIDGAME\ASTEROIDGAME\GAMESCENESTATE.CPP|D:\TYALU\DOCUMENTS\VISUAL STUDIO 2015\PROJECTS\ASTEROIDGAME\ASTEROIDGAME\GAMESTATE.CPP|D:\TYALU\DOCUMENTS\VISUAL STUDIO 2015\PROJECTS\ASTEROIDGAME\ASTEROIDGAME\GAMESTRATEGY.CPP|D:\TYALU\DOCUMENTS\VISUAL STUDIO 2015\PROJECTS\ASTEROIDGAME\ASTEROIDGAME\LOADINGSTATE.CPP|D:\TYALU\DOCUMENTS\VISUAL STUDIO 2015\PROJECTS\ASTEROIDGAME\ASTEROIDGAME\MENUSTATE.CPP|D:\TYALU\DOCUMENTS\VISUAL STUDIO 2015\PROJECTS\ASTEROIDGAME\ASTEROIDGAME\STATISTICSTATE.CPP
D:\TYALU\DOCUMENTS\VISUAL STUDIO 2015\PROJECTS\ASTEROIDGAME\ASTEROIDGAME\X64\DEBUG\VC140.PDB
D:\TYALU\DOCUMENTS\VISUAL STUDIO 2015\PROJECTS\ASTEROIDGAME\ASTEROIDGAME\X64\DEBUG\STATISTICSTATE.OBJ
D:\TYALU\DOCUMENTS\VISUAL STUDIO 2015\PROJECTS\ASTEROIDGAME\ASTEROIDGAME\X64\DEBUG\MENUSTATE.OBJ
D:\TYALU\DOCUMENTS\VISUAL STUDIO 2015\PROJECTS\ASTEROIDGAME\ASTEROIDGAME\X64\DEBUG\LOADINGSTATE.OBJ
D:\TYALU\DOCUMENTS\VISUAL STUDIO 2015\PROJECTS\ASTEROIDGAME\ASTEROIDGAME\X64\DEBUG\GAMESTRATEGY.OBJ
D:\TYALU\DOCUMENTS\VISUAL STUDIO 2015\PROJECTS\ASTEROIDGAME\ASTEROIDGAME\X64\DEBUG\GAMESTATE.OBJ
D:\TYALU\DOCUMENTS\VISUAL STUDIO 2015\PROJECTS\ASTEROIDGAME\ASTEROIDGAME\X64\DEBUG\GAMESCENESTATE.OBJ
D:\TYALU\DOCUMENTS\VISUAL STUDIO 2015\PROJECTS\ASTEROIDGAME\ASTEROIDGAME\X64\DEBUG\GAME.OBJ
^D:\TYALU\DOCUMENTS\VISUAL STUDIO 2015\PROJECTS\ASTEROIDGAME\ASTEROIDGAME\ASTEROID.CPP|D:\TYALU\DOCUMENTS\VISUAL STUDIO 2015\PROJECTS\ASTEROIDGAME\ASTEROIDGAME\BULLET.CPP|D:\TYALU\DOCUMENTS\VISUAL STUDIO 2015\PROJECTS\ASTEROIDGAME\ASTEROIDGAME\GAME.CPP|D:\TYALU\DOCUMENTS\VISUAL STUDIO 2015\PROJECTS\ASTEROIDGAME\ASTEROIDGAME\GAMEBUTTON.CPP|D:\TYALU\DOCUMENTS\VISUAL STUDIO 2015\PROJECTS\ASTEROIDGAME\ASTEROIDGAME\GAMESCENESTATE.CPP|D:\TYALU\DOCUMENTS\VISUAL STUDIO 2015\PROJECTS\ASTEROIDGAME\ASTEROIDGAME\GAMESTATE.CPP|D:\TYALU\DOCUMENTS\VISUAL STUDIO 2015\PROJECTS\ASTEROIDGAME\ASTEROIDGAME\GAMESTRATEGY.CPP|D:\TYALU\DOCUMENTS\VISUAL STUDIO 2015\PROJECTS\ASTEROIDGAME\ASTEROIDGAME\GENERATEDFILES\DEBUG\MOC_MAINWINDOW.CPP|D:\TYALU\DOCUMENTS\VISUAL STUDIO 2015\PROJECTS\ASTEROIDGAME\ASTEROIDGAME\LOADINGSTATE.CPP|D:\TYALU\DOCUMENTS\VISUAL STUDIO 2015\PROJECTS\ASTEROIDGAME\ASTEROIDGAME\MAIN.CPP|D:\TYALU\DOCUMENTS\VISUAL STUDIO 2015\PROJECTS\ASTEROIDGAME\ASTEROIDGAME\MAINWINDOW.CPP|D:\TYALU\DOCUMENTS\VISUAL STUDIO 2015\PROJECTS\ASTEROIDGAME\ASTEROIDGAME\MENUSTATE.CPP|D:\TYALU\DOCUMENTS\VISUAL STUDIO 2015\PROJECTS\ASTEROIDGAME\ASTEROIDGAME\PLAYER.CPP|D:\TYALU\DOCUMENTS\VISUAL STUDIO 2015\PROJECTS\ASTEROIDGAME\ASTEROIDGAME\STATISTICSTATE.CPP
D:\TYALU\DOCUMENTS\VISUAL STUDIO 2015\PROJECTS\ASTEROIDGAME\ASTEROIDGAME\X64\DEBUG\VC140.PDB
D:\TYALU\DOCUMENTS\VISUAL STUDIO 2015\PROJECTS\ASTEROIDGAME\ASTEROIDGAME\X64\DEBUG\MAINWINDOW.OBJ
D:\TYALU\DOCUMENTS\VISUAL STUDIO 2015\PROJECTS\ASTEROIDGAME\ASTEROIDGAME\X64\DEBUG\MAIN.OBJ
D:\TYALU\DOCUMENTS\VISUAL STUDIO 2015\PROJECTS\ASTEROIDGAME\ASTEROIDGAME\X64\DEBUG\STATISTICSTATE.OBJ
D:\TYALU\DOCUMENTS\VISUAL STUDIO 2015\PROJECTS\ASTEROIDGAME\ASTEROIDGAME\X64\DEBUG\PLAYER.OBJ
D:\TYALU\DOCUMENTS\VISUAL STUDIO 2015\PROJECTS\ASTEROIDGAME\ASTEROIDGAME\X64\DEBUG\MENUSTATE.OBJ
D:\TYALU\DOCUMENTS\VISUAL STUDIO 2015\PROJECTS\ASTEROIDGAME\ASTEROIDGAME\X64\DEBUG\LOADINGSTATE.OBJ
D:\TYALU\DOCUMENTS\VISUAL STUDIO 2015\PROJECTS\ASTEROIDGAME\ASTEROIDGAME\X64\DEBUG\MOC_MAINWINDOW.OBJ
D:\TYALU\DOCUMENTS\VISUAL STUDIO 2015\PROJECTS\ASTEROIDGAME\ASTEROIDGAME\X64\DEBUG\GAMESTRATEGY.OBJ
D:\TYALU\DOCUMENTS\VISUAL STUDIO 2015\PROJECTS\ASTEROIDGAME\ASTEROIDGAME\X64\DEBUG\GAMESTATE.OBJ
D:\TYALU\DOCUMENTS\VISUAL STUDIO 2015\PROJECTS\ASTEROIDGAME\ASTEROIDGAME\X64\DEBUG\GAMESCENESTATE.OBJ
D:\TYALU\DOCUMENTS\VISUAL STUDIO 2015\PROJECTS\ASTEROIDGAME\ASTEROIDGAME\X64\DEBUG\GAMEBUTTON.OBJ
D:\TYALU\DOCUMENTS\VISUAL STUDIO 2015\PROJECTS\ASTEROIDGAME\ASTEROIDGAME\X64\DEBUG\GAME.OBJ
D:\TYALU\DOCUMENTS\VISUAL STUDIO 2015\PROJECTS\ASTEROIDGAME\ASTEROIDGAME\X64\DEBUG\BULLET.OBJ
D:\TYALU\DOCUMENTS\VISUAL STUDIO 2015\PROJECTS\ASTEROIDGAME\ASTEROIDGAME\X64\DEBUG\ASTEROID.OBJ
^D:\TYALU\DOCUMENTS\VISUAL STUDIO 2015\PROJECTS\ASTEROIDGAME\ASTEROIDGAME\GENERATEDFILES\DEBUG\MOC_MAINWINDOW.CPP
D:\TYALU\DOCUMENTS\VISUAL STUDIO 2015\PROJECTS\ASTEROIDGAME\ASTEROIDGAME\X64\DEBUG\VC140.PDB
^D:\TYALU\DOCUMENTS\VISUAL STUDIO 2015\PROJECTS\ASTEROIDGAME\ASTEROIDGAME\BULLET.CPP|D:\TYALU\DOCUMENTS\VISUAL STUDIO 2015\PROJECTS\ASTEROIDGAME\ASTEROIDGAME\PLAYER.CPP
D:\TYALU\DOCUMENTS\VISUAL STUDIO 2015\PROJECTS\ASTEROIDGAME\ASTEROIDGAME\X64\DEBUG\VC140.PDB
D:\TYALU\DOCUMENTS\VISUAL STUDIO 2015\PROJECTS\ASTEROIDGAME\ASTEROIDGAME\X64\DEBUG\PLAYER.OBJ
D:\TYALU\DOCUMENTS\VISUAL STUDIO 2015\PROJECTS\ASTEROIDGAME\ASTEROIDGAME\X64\DEBUG\BULLET.OBJ
^D:\TYALU\DOCUMENTS\VISUAL STUDIO 2015\PROJECTS\ASTEROIDGAME\ASTEROIDGAME\BULLET.CPP|D:\TYALU\DOCUMENTS\VISUAL STUDIO 2015\PROJECTS\ASTEROIDGAME\ASTEROIDGAME\GAMESCENESTATE.CPP
D:\TYALU\DOCUMENTS\VISUAL STUDIO 2015\PROJECTS\ASTEROIDGAME\ASTEROIDGAME\X64\DEBUG\VC140.PDB
D:\TYALU\DOCUMENTS\VISUAL STUDIO 2015\PROJECTS\ASTEROIDGAME\ASTEROIDGAME\X64\DEBUG\GAMESCENESTATE.OBJ
D:\TYALU\DOCUMENTS\VISUAL STUDIO 2015\PROJECTS\ASTEROIDGAME\ASTEROIDGAME\X64\DEBUG\BULLET.OBJ
^D:\TYALU\DOCUMENTS\VISUAL STUDIO 2015\PROJECTS\ASTEROIDGAME\ASTEROIDGAME\ASTEROID.CPP|D:\TYALU\DOCUMENTS\VISUAL STUDIO 2015\PROJECTS\ASTEROIDGAME\ASTEROIDGAME\PLAYER.CPP
D:\TYALU\DOCUMENTS\VISUAL STUDIO 2015\PROJECTS\ASTEROIDGAME\ASTEROIDGAME\X64\DEBUG\VC140.PDB
D:\TYALU\DOCUMENTS\VISUAL STUDIO 2015\PROJECTS\ASTEROIDGAME\ASTEROIDGAME\X64\DEBUG\PLAYER.OBJ
D:\TYALU\DOCUMENTS\VISUAL STUDIO 2015\PROJECTS\ASTEROIDGAME\ASTEROIDGAME\X64\DEBUG\ASTEROID.OBJ
^D:\TYALU\DOCUMENTS\VISUAL STUDIO 2015\PROJECTS\ASTEROIDGAME\ASTEROIDGAME\ASTEROID.CPP|D:\TYALU\DOCUMENTS\VISUAL STUDIO 2015\PROJECTS\ASTEROIDGAME\ASTEROIDGAME\BULLET.CPP|D:\TYALU\DOCUMENTS\VISUAL STUDIO 2015\PROJECTS\ASTEROIDGAME\ASTEROIDGAME\GAME.CPP|D:\TYALU\DOCUMENTS\VISUAL STUDIO 2015\PROJECTS\ASTEROIDGAME\ASTEROIDGAME\GAMEBUTTON.CPP|D:\TYALU\DOCUMENTS\VISUAL STUDIO 2015\PROJECTS\ASTEROIDGAME\ASTEROIDGAME\GAMESCENESTATE.CPP|D:\TYALU\DOCUMENTS\VISUAL STUDIO 2015\PROJECTS\ASTEROIDGAME\ASTEROIDGAME\GAMESTATE.CPP|D:\TYALU\DOCUMENTS\VISUAL STUDIO 2015\PROJECTS\ASTEROIDGAME\ASTEROIDGAME\GAMESTRATEGY.CPP|D:\TYALU\DOCUMENTS\VISUAL STUDIO 2015\PROJECTS\ASTEROIDGAME\ASTEROIDGAME\GRAPHICOBJECT.CPP|D:\TYALU\DOCUMENTS\VISUAL STUDIO 2015\PROJECTS\ASTEROIDGAME\ASTEROIDGAME\LOADINGSTATE.CPP|D:\TYALU\DOCUMENTS\VISUAL STUDIO 2015\PROJECTS\ASTEROIDGAME\ASTEROIDGAME\MAIN.CPP|D:\TYALU\DOCUMENTS\VISUAL STUDIO 2015\PROJECTS\ASTEROIDGAME\ASTEROIDGAME\MAINWINDOW.CPP|D:\TYALU\DOCUMENTS\VISUAL STUDIO 2015\PROJECTS\ASTEROIDGAME\ASTEROIDGAME\MENUSTATE.CPP|D:\TYALU\DOCUMENTS\VISUAL STUDIO 2015\PROJECTS\ASTEROIDGAME\ASTEROIDGAME\PLAYER.CPP|D:\TYALU\DOCUMENTS\VISUAL STUDIO 2015\PROJECTS\ASTEROIDGAME\ASTEROIDGAME\STATISTICSTATE.CPP
D:\TYALU\DOCUMENTS\VISUAL STUDIO 2015\PROJECTS\ASTEROIDGAME\ASTEROIDGAME\X64\DEBUG\VC140.PDB
D:\TYALU\DOCUMENTS\VISUAL STUDIO 2015\PROJECTS\ASTEROIDGAME\ASTEROIDGAME\X64\DEBUG\GRAPHICOBJECT.OBJ
^D:\TYALU\DOCUMENTS\VISUAL STUDIO 2015\PROJECTS\ASTEROIDGAME\ASTEROIDGAME\ASTEROID.CPP|D:\TYALU\DOCUMENTS\VISUAL STUDIO 2015\PROJECTS\ASTEROIDGAME\ASTEROIDGAME\BULLET.CPP|D:\TYALU\DOCUMENTS\VISUAL STUDIO 2015\PROJECTS\ASTEROIDGAME\ASTEROIDGAME\GAME.CPP|D:\TYALU\DOCUMENTS\VISUAL STUDIO 2015\PROJECTS\ASTEROIDGAME\ASTEROIDGAME\GAMEBUTTON.CPP|D:\TYALU\DOCUMENTS\VISUAL STUDIO 2015\PROJECTS\ASTEROIDGAME\ASTEROIDGAME\GAMESCENESTATE.CPP|D:\TYALU\DOCUMENTS\VISUAL STUDIO 2015\PROJECTS\ASTEROIDGAME\ASTEROIDGAME\GAMESTATE.CPP|D:\TYALU\DOCUMENTS\VISUAL STUDIO 2015\PROJECTS\ASTEROIDGAME\ASTEROIDGAME\GAMESTRATEGY.CPP|D:\TYALU\DOCUMENTS\VISUAL STUDIO 2015\PROJECTS\ASTEROIDGAME\ASTEROIDGAME\GRAPHICOBJECT.CPP|D:\TYALU\DOCUMENTS\VISUAL STUDIO 2015\PROJECTS\ASTEROIDGAME\ASTEROIDGAME\LOADINGSTATE.CPP|D:\TYALU\DOCUMENTS\VISUAL STUDIO 2015\PROJECTS\ASTEROIDGAME\ASTEROIDGAME\LOG.CPP|D:\TYALU\DOCUMENTS\VISUAL STUDIO 2015\PROJECTS\ASTEROIDGAME\ASTEROIDGAME\MAIN.CPP|D:\TYALU\DOCUMENTS\VISUAL STUDIO 2015\PROJECTS\ASTEROIDGAME\ASTEROIDGAME\MAINWINDOW.CPP|D:\TYALU\DOCUMENTS\VISUAL STUDIO 2015\PROJECTS\ASTEROIDGAME\ASTEROIDGAME\MENUSTATE.CPP|D:\TYALU\DOCUMENTS\VISUAL STUDIO 2015\PROJECTS\ASTEROIDGAME\ASTEROIDGAME\PLAYER.CPP|D:\TYALU\DOCUMENTS\VISUAL STUDIO 2015\PROJECTS\ASTEROIDGAME\ASTEROIDGAME\STATISTICSTATE.CPP
D:\TYALU\DOCUMENTS\VISUAL STUDIO 2015\PROJECTS\ASTEROIDGAME\ASTEROIDGAME\X64\DEBUG\VC140.PDB
D:\TYALU\DOCUMENTS\VISUAL STUDIO 2015\PROJECTS\ASTEROIDGAME\ASTEROIDGAME\X64\DEBUG\MAINWINDOW.OBJ
D:\TYALU\DOCUMENTS\VISUAL STUDIO 2015\PROJECTS\ASTEROIDGAME\ASTEROIDGAME\X64\DEBUG\MAIN.OBJ
D:\TYALU\DOCUMENTS\VISUAL STUDIO 2015\PROJECTS\ASTEROIDGAME\ASTEROIDGAME\X64\DEBUG\STATISTICSTATE.OBJ
D:\TYALU\DOCUMENTS\VISUAL STUDIO 2015\PROJECTS\ASTEROIDGAME\ASTEROIDGAME\X64\DEBUG\PLAYER.OBJ
D:\TYALU\DOCUMENTS\VISUAL STUDIO 2015\PROJECTS\ASTEROIDGAME\ASTEROIDGAME\X64\DEBUG\MENUSTATE.OBJ
D:\TYALU\DOCUMENTS\VISUAL STUDIO 2015\PROJECTS\ASTEROIDGAME\ASTEROIDGAME\X64\DEBUG\LOG.OBJ
D:\TYALU\DOCUMENTS\VISUAL STUDIO 2015\PROJECTS\ASTEROIDGAME\ASTEROIDGAME\X64\DEBUG\LOADINGSTATE.OBJ
D:\TYALU\DOCUMENTS\VISUAL STUDIO 2015\PROJECTS\ASTEROIDGAME\ASTEROIDGAME\X64\DEBUG\GRAPHICOBJECT.OBJ
D:\TYALU\DOCUMENTS\VISUAL STUDIO 2015\PROJECTS\ASTEROIDGAME\ASTEROIDGAME\X64\DEBUG\GAMESTRATEGY.OBJ
D:\TYALU\DOCUMENTS\VISUAL STUDIO 2015\PROJECTS\ASTEROIDGAME\ASTEROIDGAME\X64\DEBUG\GAMESTATE.OBJ
D:\TYALU\DOCUMENTS\VISUAL STUDIO 2015\PROJECTS\ASTEROIDGAME\ASTEROIDGAME\X64\DEBUG\GAMESCENESTATE.OBJ
D:\TYALU\DOCUMENTS\VISUAL STUDIO 2015\PROJECTS\ASTEROIDGAME\ASTEROIDGAME\X64\DEBUG\GAMEBUTTON.OBJ
D:\TYALU\DOCUMENTS\VISUAL STUDIO 2015\PROJECTS\ASTEROIDGAME\ASTEROIDGAME\X64\DEBUG\GAME.OBJ
D:\TYALU\DOCUMENTS\VISUAL STUDIO 2015\PROJECTS\ASTEROIDGAME\ASTEROIDGAME\X64\DEBUG\BULLET.OBJ
D:\TYALU\DOCUMENTS\VISUAL STUDIO 2015\PROJECTS\ASTEROIDGAME\ASTEROIDGAME\X64\DEBUG\ASTEROID.OBJ
^D:\TYALU\DOCUMENTS\VISUAL STUDIO 2015\PROJECTS\ASTEROIDGAME\ASTEROIDGAME\GRAPHICOBJECT.CPP
D:\TYALU\DOCUMENTS\VISUAL STUDIO 2015\PROJECTS\ASTEROIDGAME\ASTEROIDGAME\X64\DEBUG\VC140.PDB
^D:\TYALU\DOCUMENTS\VISUAL STUDIO 2015\PROJECTS\ASTEROIDGAME\ASTEROIDGAME\LOG.CPP
D:\TYALU\DOCUMENTS\VISUAL STUDIO 2015\PROJECTS\ASTEROIDGAME\ASTEROIDGAME\X64\DEBUG\VC140.PDB
^D:\TYALU\DOCUMENTS\VISUAL STUDIO 2015\PROJECTS\ASTEROIDGAME\ASTEROIDGAME\ASTEROID.CPP|D:\TYALU\DOCUMENTS\VISUAL STUDIO 2015\PROJECTS\ASTEROIDGAME\ASTEROIDGAME\BULLET.CPP
D:\TYALU\DOCUMENTS\VISUAL STUDIO 2015\PROJECTS\ASTEROIDGAME\ASTEROIDGAME\X64\DEBUG\VC140.PDB
D:\TYALU\DOCUMENTS\VISUAL STUDIO 2015\PROJECTS\ASTEROIDGAME\ASTEROIDGAME\X64\DEBUG\BULLET.OBJ
D:\TYALU\DOCUMENTS\VISUAL STUDIO 2015\PROJECTS\ASTEROIDGAME\ASTEROIDGAME\X64\DEBUG\ASTEROID.OBJ
^D:\TYALU\DOCUMENTS\VISUAL STUDIO 2015\PROJECTS\ASTEROIDGAME\ASTEROIDGAME\ASTEROID.CPP|D:\TYALU\DOCUMENTS\VISUAL STUDIO 2015\PROJECTS\ASTEROIDGAME\ASTEROIDGAME\STATISTICSTATE.CPP
D:\TYALU\DOCUMENTS\VISUAL STUDIO 2015\PROJECTS\ASTEROIDGAME\ASTEROIDGAME\X64\DEBUG\VC140.PDB
D:\TYALU\DOCUMENTS\VISUAL STUDIO 2015\PROJECTS\ASTEROIDGAME\ASTEROIDGAME\X64\DEBUG\STATISTICSTATE.OBJ
D:\TYALU\DOCUMENTS\VISUAL STUDIO 2015\PROJECTS\ASTEROIDGAME\ASTEROIDGAME\X64\DEBUG\ASTEROID.OBJ
^D:\TYALU\DOCUMENTS\VISUAL STUDIO 2015\PROJECTS\ASTEROIDGAME\ASTEROIDGAME\ASTEROID.CPP|D:\TYALU\DOCUMENTS\VISUAL STUDIO 2015\PROJECTS\ASTEROIDGAME\ASTEROIDGAME\BULLET.CPP|D:\TYALU\DOCUMENTS\VISUAL STUDIO 2015\PROJECTS\ASTEROIDGAME\ASTEROIDGAME\GAME.CPP|D:\TYALU\DOCUMENTS\VISUAL STUDIO 2015\PROJECTS\ASTEROIDGAME\ASTEROIDGAME\GAMEBUTTON.CPP|D:\TYALU\DOCUMENTS\VISUAL STUDIO 2015\PROJECTS\ASTEROIDGAME\ASTEROIDGAME\GAMESCENESTATE.CPP|D:\TYALU\DOCUMENTS\VISUAL STUDIO 2015\PROJECTS\ASTEROIDGAME\ASTEROIDGAME\GAMESTATE.CPP|D:\TYALU\DOCUMENTS\VISUAL STUDIO 2015\PROJECTS\ASTEROIDGAME\ASTEROIDGAME\GAMESTRATEGY.CPP|D:\TYALU\DOCUMENTS\VISUAL STUDIO 2015\PROJECTS\ASTEROIDGAME\ASTEROIDGAME\LOADINGSTATE.CPP|D:\TYALU\DOCUMENTS\VISUAL STUDIO 2015\PROJECTS\ASTEROIDGAME\ASTEROIDGAME\MAIN.CPP|D:\TYALU\DOCUMENTS\VISUAL STUDIO 2015\PROJECTS\ASTEROIDGAME\ASTEROIDGAME\MAINWINDOW.CPP|D:\TYALU\DOCUMENTS\VISUAL STUDIO 2015\PROJECTS\ASTEROIDGAME\ASTEROIDGAME\MENUSTATE.CPP|D:\TYALU\DOCUMENTS\VISUAL STUDIO 2015\PROJECTS\ASTEROIDGAME\ASTEROIDGAME\PLAYER.CPP|D:\TYALU\DOCUMENTS\VISUAL STUDIO 2015\PROJECTS\ASTEROIDGAME\ASTEROIDGAME\STATISTICSTATE.CPP
D:\TYALU\DOCUMENTS\VISUAL STUDIO 2015\PROJECTS\ASTEROIDGAME\ASTEROIDGAME\X64\DEBUG\VC140.PDB
D:\TYALU\DOCUMENTS\VISUAL STUDIO 2015\PROJECTS\ASTEROIDGAME\ASTEROIDGAME\X64\DEBUG\MAINWINDOW.OBJ
D:\TYALU\DOCUMENTS\VISUAL STUDIO 2015\PROJECTS\ASTEROIDGAME\ASTEROIDGAME\X64\DEBUG\MAIN.OBJ
D:\TYALU\DOCUMENTS\VISUAL STUDIO 2015\PROJECTS\ASTEROIDGAME\ASTEROIDGAME\X64\DEBUG\STATISTICSTATE.OBJ
D:\TYALU\DOCUMENTS\VISUAL STUDIO 2015\PROJECTS\ASTEROIDGAME\ASTEROIDGAME\X64\DEBUG\PLAYER.OBJ
D:\TYALU\DOCUMENTS\VISUAL STUDIO 2015\PROJECTS\ASTEROIDGAME\ASTEROIDGAME\X64\DEBUG\MENUSTATE.OBJ
D:\TYALU\DOCUMENTS\VISUAL STUDIO 2015\PROJECTS\ASTEROIDGAME\ASTEROIDGAME\X64\DEBUG\LOADINGSTATE.OBJ
D:\TYALU\DOCUMENTS\VISUAL STUDIO 2015\PROJECTS\ASTEROIDGAME\ASTEROIDGAME\X64\DEBUG\GAMESTRATEGY.OBJ
D:\TYALU\DOCUMENTS\VISUAL STUDIO 2015\PROJECTS\ASTEROIDGAME\ASTEROIDGAME\X64\DEBUG\GAMESTATE.OBJ
D:\TYALU\DOCUMENTS\VISUAL STUDIO 2015\PROJECTS\ASTEROIDGAME\ASTEROIDGAME\X64\DEBUG\GAMESCENESTATE.OBJ
D:\TYALU\DOCUMENTS\VISUAL STUDIO 2015\PROJECTS\ASTEROIDGAME\ASTEROIDGAME\X64\DEBUG\GAMEBUTTON.OBJ
D:\TYALU\DOCUMENTS\VISUAL STUDIO 2015\PROJECTS\ASTEROIDGAME\ASTEROIDGAME\X64\DEBUG\GAME.OBJ
D:\TYALU\DOCUMENTS\VISUAL STUDIO 2015\PROJECTS\ASTEROIDGAME\ASTEROIDGAME\X64\DEBUG\BULLET.OBJ
D:\TYALU\DOCUMENTS\VISUAL STUDIO 2015\PROJECTS\ASTEROIDGAME\ASTEROIDGAME\X64\DEBUG\ASTEROID.OBJ
^D:\TYALU\DOCUMENTS\VISUAL STUDIO 2015\PROJECTS\ASTEROIDGAME\ASTEROIDGAME\ASTEROID.CPP
D:\TYALU\DOCUMENTS\VISUAL STUDIO 2015\PROJECTS\ASTEROIDGAME\ASTEROIDGAME\X64\DEBUG\VC140.PDB
^D:\TYALU\DOCUMENTS\VISUAL STUDIO 2015\PROJECTS\ASTEROIDGAME\ASTEROIDGAME\BULLET.CPP
D:\TYALU\DOCUMENTS\VISUAL STUDIO 2015\PROJECTS\ASTEROIDGAME\ASTEROIDGAME\X64\DEBUG\VC140.PDB
^D:\TYALU\DOCUMENTS\VISUAL STUDIO 2015\PROJECTS\ASTEROIDGAME\ASTEROIDGAME\GAMEBUTTON.CPP
D:\TYALU\DOCUMENTS\VISUAL STUDIO 2015\PROJECTS\ASTEROIDGAME\ASTEROIDGAME\X64\DEBUG\VC140.PDB
^D:\TYALU\DOCUMENTS\VISUAL STUDIO 2015\PROJECTS\ASTEROIDGAME\ASTEROIDGAME\PLAYER.CPP
D:\TYALU\DOCUMENTS\VISUAL STUDIO 2015\PROJECTS\ASTEROIDGAME\ASTEROIDGAME\X64\DEBUG\VC140.PDB
^D:\TYALU\DOCUMENTS\VISUAL STUDIO 2015\PROJECTS\ASTEROIDGAME\ASTEROIDGAME\MAIN.CPP
D:\TYALU\DOCUMENTS\VISUAL STUDIO 2015\PROJECTS\ASTEROIDGAME\ASTEROIDGAME\X64\DEBUG\VC140.PDB
^D:\TYALU\DOCUMENTS\VISUAL STUDIO 2015\PROJECTS\ASTEROIDGAME\ASTEROIDGAME\MAINWINDOW.CPP
D:\TYALU\DOCUMENTS\VISUAL STUDIO 2015\PROJECTS\ASTEROIDGAME\ASTEROIDGAME\X64\DEBUG\VC140.PDB
^D:\TYALU\DOCUMENTS\VISUAL STUDIO 2015\PROJECTS\ASTEROIDGAME\ASTEROIDGAME\GAME.CPP|D:\TYALU\DOCUMENTS\VISUAL STUDIO 2015\PROJECTS\ASTEROIDGAME\ASTEROIDGAME\GAMESCENESTATE.CPP|D:\TYALU\DOCUMENTS\VISUAL STUDIO 2015\PROJECTS\ASTEROIDGAME\ASTEROIDGAME\GAMESTATE.CPP|D:\TYALU\DOCUMENTS\VISUAL STUDIO 2015\PROJECTS\ASTEROIDGAME\ASTEROIDGAME\GAMESTRATEGY.CPP|D:\TYALU\DOCUMENTS\VISUAL STUDIO 2015\PROJECTS\ASTEROIDGAME\ASTEROIDGAME\LOADINGSTATE.CPP|D:\TYALU\DOCUMENTS\VISUAL STUDIO 2015\PROJECTS\ASTEROIDGAME\ASTEROIDGAME\MENUSTATE.CPP|D:\TYALU\DOCUMENTS\VISUAL STUDIO 2015\PROJECTS\ASTEROIDGAME\ASTEROIDGAME\STATISTICSTATE.CPP|D:\TYALU\DOCUMENTS\VISUAL STUDIO 2015\PROJECTS\ASTEROIDGAME\ASTEROIDGAME\STATSORT.CPP
D:\TYALU\DOCUMENTS\VISUAL STUDIO 2015\PROJECTS\ASTEROIDGAME\ASTEROIDGAME\X64\DEBUG\VC140.PDB
D:\TYALU\DOCUMENTS\VISUAL STUDIO 2015\PROJECTS\ASTEROIDGAME\ASTEROIDGAME\X64\DEBUG\STATISTICSTATE.OBJ
D:\TYALU\DOCUMENTS\VISUAL STUDIO 2015\PROJECTS\ASTEROIDGAME\ASTEROIDGAME\X64\DEBUG\STATSORT.OBJ
D:\TYALU\DOCUMENTS\VISUAL STUDIO 2015\PROJECTS\ASTEROIDGAME\ASTEROIDGAME\X64\DEBUG\MENUSTATE.OBJ
D:\TYALU\DOCUMENTS\VISUAL STUDIO 2015\PROJECTS\ASTEROIDGAME\ASTEROIDGAME\X64\DEBUG\LOADINGSTATE.OBJ
D:\TYALU\DOCUMENTS\VISUAL STUDIO 2015\PROJECTS\ASTEROIDGAME\ASTEROIDGAME\X64\DEBUG\GAMESTRATEGY.OBJ
D:\TYALU\DOCUMENTS\VISUAL STUDIO 2015\PROJECTS\ASTEROIDGAME\ASTEROIDGAME\X64\DEBUG\GAMESTATE.OBJ
D:\TYALU\DOCUMENTS\VISUAL STUDIO 2015\PROJECTS\ASTEROIDGAME\ASTEROIDGAME\X64\DEBUG\GAMESCENESTATE.OBJ
D:\TYALU\DOCUMENTS\VISUAL STUDIO 2015\PROJECTS\ASTEROIDGAME\ASTEROIDGAME\X64\DEBUG\GAME.OBJ
^D:\TYALU\DOCUMENTS\VISUAL STUDIO 2015\PROJECTS\ASTEROIDGAME\ASTEROIDGAME\GAME.CPP
D:\TYALU\DOCUMENTS\VISUAL STUDIO 2015\PROJECTS\ASTEROIDGAME\ASTEROIDGAME\X64\DEBUG\VC140.PDB
^D:\TYALU\DOCUMENTS\VISUAL STUDIO 2015\PROJECTS\ASTEROIDGAME\ASTEROIDGAME\GAMESCENESTATE.CPP
D:\TYALU\DOCUMENTS\VISUAL STUDIO 2015\PROJECTS\ASTEROIDGAME\ASTEROIDGAME\X64\DEBUG\VC140.PDB
^D:\TYALU\DOCUMENTS\VISUAL STUDIO 2015\PROJECTS\ASTEROIDGAME\ASTEROIDGAME\GAMESTATE.CPP
D:\TYALU\DOCUMENTS\VISUAL STUDIO 2015\PROJECTS\ASTEROIDGAME\ASTEROIDGAME\X64\DEBUG\VC140.PDB
^D:\TYALU\DOCUMENTS\VISUAL STUDIO 2015\PROJECTS\ASTEROIDGAME\ASTEROIDGAME\GAMESTRATEGY.CPP
D:\TYALU\DOCUMENTS\VISUAL STUDIO 2015\PROJECTS\ASTEROIDGAME\ASTEROIDGAME\X64\DEBUG\VC140.PDB
^D:\TYALU\DOCUMENTS\VISUAL STUDIO 2015\PROJECTS\ASTEROIDGAME\ASTEROIDGAME\LOADINGSTATE.CPP
D:\TYALU\DOCUMENTS\VISUAL STUDIO 2015\PROJECTS\ASTEROIDGAME\ASTEROIDGAME\X64\DEBUG\VC140.PDB
^D:\TYALU\DOCUMENTS\VISUAL STUDIO 2015\PROJECTS\ASTEROIDGAME\ASTEROIDGAME\MENUSTATE.CPP
D:\TYALU\DOCUMENTS\VISUAL STUDIO 2015\PROJECTS\ASTEROIDGAME\ASTEROIDGAME\X64\DEBUG\VC140.PDB
^D:\TYALU\DOCUMENTS\VISUAL STUDIO 2015\PROJECTS\ASTEROIDGAME\ASTEROIDGAME\STATSORT.CPP
D:\TYALU\DOCUMENTS\VISUAL STUDIO 2015\PROJECTS\ASTEROIDGAME\ASTEROIDGAME\X64\DEBUG\VC140.PDB
^D:\TYALU\DOCUMENTS\VISUAL STUDIO 2015\PROJECTS\ASTEROIDGAME\ASTEROIDGAME\STATISTICSTATE.CPP
D:\TYALU\DOCUMENTS\VISUAL STUDIO 2015\PROJECTS\ASTEROIDGAME\ASTEROIDGAME\X64\DEBUG\VC140.PDB
